<?xml version="1.0" encoding="UTF-8" standalone="no"?>
<!-- Created with Inkscape (http://www.inkscape.org/) -->

<svg
   xmlns:dc="http://purl.org/dc/elements/1.1/"
   xmlns:cc="http://creativecommons.org/ns#"
   xmlns:rdf="http://www.w3.org/1999/02/22-rdf-syntax-ns#"
   xmlns:svg="http://www.w3.org/2000/svg"
   xmlns="http://www.w3.org/2000/svg"
   xmlns:sodipodi="http://sodipodi.sourceforge.net/DTD/sodipodi-0.dtd"
   xmlns:inkscape="http://www.inkscape.org/namespaces/inkscape"
   width="128.67245mm"
   height="128.67245mm"
   viewBox="0 0 128.67245 128.67245"
   version="1.1"
   id="svg8"
   sodipodi:docname="greiner_icon_gruen.svg"
   inkscape:version="0.92.4 (5da689c313, 2019-01-14)"
   inkscape:export-filename="/home/samuel/Dokumente/Arbeit/gitlab-greiner.schule/icons/greiner_icon_gruen.png"
   inkscape:export-xdpi="150"
   inkscape:export-ydpi="150">
  <defs
     id="defs2">
    <filter
       inkscape:collect="always"
       style="color-interpolation-filters:sRGB"
       id="filter881"
       x="-0.034643228"
       width="1.0692865"
       y="-0.22383068"
       height="1.4476614">
      <feGaussianBlur
         inkscape:collect="always"
         stdDeviation="2.4919816"
         id="feGaussianBlur883" />
    </filter>
  </defs>
  <sodipodi:namedview
     id="base"
     pagecolor="#ffffff"
     bordercolor="#666666"
     borderopacity="1.0"
     inkscape:pageopacity="0.0"
     inkscape:pageshadow="2"
     inkscape:zoom="1.98"
     inkscape:cx="91.561133"
     inkscape:cy="265.09239"
     inkscape:document-units="mm"
     inkscape:current-layer="layer1"
     showgrid="false"
     inkscape:window-width="2560"
     inkscape:window-height="1407"
     inkscape:window-x="0"
     inkscape:window-y="33"
     inkscape:window-maximized="1"
     showguides="false"
     inkscape:snap-global="false"
     fit-margin-top="1"
     fit-margin-left="1"
     fit-margin-right="1"
     fit-margin-bottom="1">
    <inkscape:grid
       type="xygrid"
       id="grid928"
       originx="-33.893668"
       originy="-118.3786" />
  </sodipodi:namedview>
  <metadata
     id="metadata5">
    <rdf:RDF>
      <cc:Work
         rdf:about="">
        <dc:format>image/svg+xml</dc:format>
        <dc:type
           rdf:resource="http://purl.org/dc/dcmitype/StillImage" />
        <dc:title></dc:title>
      </cc:Work>
    </rdf:RDF>
  </metadata>
  <g
     inkscape:label="Ebene 1"
     inkscape:groupmode="layer"
     id="layer1"
     transform="translate(-33.893669,-49.948929)">
    <path
       style="fill:#447821;fill-opacity:1;stroke-width:0.26458335"
       d="m 92.42142,170.63618 c -0.12327,-0.33815 -0.90874,-3.05894 -1.74548,-6.0462 l -1.52135,-5.43137 -2.68716,-0.69544 c -1.47794,-0.38249 -2.874,-0.77059 -3.10235,-0.86243 -0.29322,-0.11794 -1.75133,1.12644 -4.96346,4.23593 -2.50154,2.4216 -4.69595,4.34224 -4.87647,4.26809 -1.33448,-0.5482 -8.54631,-4.96833 -8.60838,-5.27608 -0.0429,-0.2129 0.58305,-3.02359 1.3911,-6.24598 l 1.46918,-5.85889 -2.27109,-2.24566 -2.27108,-2.24567 -5.92573,1.48233 c -3.25914,0.81527 -6.07784,1.42287 -6.26376,1.35023 -0.32129,-0.12555 -5.23283,-8.37548 -5.23283,-8.78961 0,-0.10844 1.94638,-2.23731 4.3253,-4.73083 l 4.32531,-4.53366 -0.73791,-2.51354 c -0.40585,-1.38245 -0.74489,-2.759 -0.75343,-3.05901 -0.0136,-0.47876 -0.61605,-0.71567 -4.9257,-1.93706 -2.70059,-0.76537 -5.49856,-1.56632 -6.2177,-1.77988 l -1.30754,-0.3883 v -5.13982 c 0,-4.62671 0.0462,-5.16391 0.46302,-5.38121 0.25466,-0.13277 2.42755,-0.79934 4.82865,-1.48128 2.40109,-0.68193 4.98119,-1.41662 5.73356,-1.63263 1.30091,-0.3735 1.37676,-0.44496 1.54797,-1.45831 0.099,-0.58606 0.46054,-1.97477 0.8034,-3.08602 l 0.62338,-2.020442 -4.35416,-4.42121 c -2.39478,-2.431664 -4.35415,-4.56306 -4.35415,-4.736439 0,-0.354555 4.39414,-8.118795 4.92289,-8.698526 0.29083,-0.318863 1.23097,-0.147238 6.4511,1.177663 l 6.11065,1.550921 2.2347,-2.235996 2.2347,-2.235997 -1.57475,-6.085417 c -1.22951,-4.75126 -1.50434,-6.153216 -1.25359,-6.394665 0.17665,-0.170086 2.2092,-1.401436 4.51678,-2.736333 l 4.19561,-2.427086 0.96377,0.878632 c 0.53007,0.483248 2.58915,2.47521 4.57573,4.426582 l 3.61198,3.54795 2.60573,-0.713973 c 1.43316,-0.392686 2.84742,-0.811384 3.14281,-0.930439 0.43563,-0.175575 0.85842,-1.351277 2.23836,-6.224488 l 1.70128,-6.008027 3.97935,0.09382 c 3.75959,0.08864 4.05973,0.135273 5.43457,0.844418 0.80036,0.41283 2.02458,1.224574 2.72048,1.803877 1.16988,0.97387 1.32745,1.031603 2.09,0.765776 1.25114,-0.436148 3.39658,-0.335045 4.58223,0.215935 1.42535,0.662374 2.93058,2.285614 3.42824,3.697016 0.8206,2.327316 0.37082,4.455764 -1.34483,6.363986 l -1.12398,1.250136 0.59973,1.964065 c 0.32985,1.080238 0.7093,1.961462 0.8432,1.958279 0.13391,-0.0032 1.945,-0.858176 4.02465,-1.899978 3.59438,-1.800601 7.71276,-3.339632 10.9032,-4.074496 2.38829,-0.550106 6.476,-0.420468 8.241,0.261353 3.29667,1.273508 5.23612,4.12238 5.46484,8.027363 l 0.11971,2.043867 1.39258,1.395716 c 1.48556,1.488904 1.97569,2.639804 1.97831,4.645359 0.004,3.043785 -2.98313,6.121011 -5.95748,6.137254 l -1.06416,0.0058 -1.44463,2.844272 c -0.79455,1.56435 -1.48646,2.93357 -1.53758,3.04271 -0.0511,0.10914 0.10062,0.19844 0.3372,0.19844 0.75292,0 7.41616,2.323172 9.73218,3.393172 5.05708,2.33638 9.29268,5.86742 10.68424,8.90699 0.58817,1.28473 0.66969,1.77541 0.58574,3.52582 -0.11787,2.45749 -0.77259,3.94924 -2.6209,5.97159 -1.16377,1.27335 -1.27004,1.49498 -1.13015,2.35702 0.24561,1.51351 -0.13348,3.20919 -1.01497,4.54 -2.07583,3.13393 -6.53164,3.78125 -9.3969,1.36514 l -0.84451,-0.71213 -3.13786,0.9695 -3.13786,0.96949 2.00832,4.00202 c 3.14785,6.27278 4.48804,10.74953 4.49662,15.0205 0.0121,6.01449 -2.93906,9.39822 -8.46093,9.70117 l -2.24781,0.12332 -1.04924,1.192 c -1.34897,1.53251 -2.74016,2.16278 -4.77389,2.16278 -3.45068,0 -6.00846,-2.40162 -6.32594,-5.93972 -0.0871,-0.97019 -0.14661,-1.0198 -3.01304,-2.51037 l -2.92422,-1.52061 -0.95409,2.94064 c -2.55284,7.86814 -6.32422,13.26807 -10.72221,15.35229 -1.63657,0.77557 -1.9185,0.82191 -5.49453,0.90317 -3.73903,0.085 -3.77126,0.0807 -3.99357,-0.52917 z m 9.21823,-0.90905 c 4.34934,-2.0801 7.91278,-7.2375 10.45699,-15.13452 0.57135,-1.77341 1.17261,-3.22438 1.33614,-3.22438 0.16353,0 1.71439,0.74415 3.44637,1.65365 l 3.14904,1.65365 0.15693,1.4552 c 0.25532,2.36744 1.43917,4.03135 3.47259,4.88076 2.31503,0.96704 4.99009,0.24594 6.70693,-1.80795 1.01162,-1.21023 1.0345,-1.22072 2.66059,-1.22072 1.86975,0 4.42828,-0.71323 5.6312,-1.56978 0.44957,-0.32012 1.1624,-1.08349 1.58408,-1.69637 2.88185,-4.18863 1.93491,-10.97426 -2.88867,-20.69982 -1.16056,-2.33998 -2.11011,-4.37614 -2.11011,-4.5248 0,-0.14865 0.80367,-0.48343 1.78594,-0.74396 0.98226,-0.26052 2.54416,-0.75441 3.47088,-1.09753 l 1.68495,-0.62384 0.94164,0.82677 c 1.2522,1.09945 2.41513,1.55556 3.9482,1.54852 3.50738,-0.0161 6.27242,-3.25296 5.75072,-6.73197 -0.17358,-1.1575 -0.13936,-1.23645 1.1453,-2.64207 1.99984,-2.18815 2.57156,-3.54464 2.57023,-6.09828 -0.001,-1.849 -0.10013,-2.2957 -0.7842,-3.53244 -2.24679,-4.06204 -8.54737,-7.95936 -17.20637,-10.643252 -2.55945,-0.7933 -3.175,-1.07907 -3.175,-1.47399 0,-0.26945 0.68561,-1.82936 1.52356,-3.46647 1.46678,-2.8656 1.55554,-2.976614 2.38125,-2.978035 1.6569,-0.0029 2.94683,-0.559914 4.20125,-1.814338 2.49895,-2.498947 2.44084,-5.607439 -0.15211,-8.137041 l -1.3878,-1.353894 -0.16696,-2.217981 c -0.21223,-2.819463 -1.32357,-5.194337 -3.04333,-6.503442 -4.09749,-3.119065 -11.75297,-2.018906 -21.71251,3.120273 -1.94698,1.004658 -3.62521,1.826649 -3.72939,1.826649 -0.17862,0 -1.59417,-4.385506 -1.59417,-4.938906 0,-0.141951 0.52061,-0.80143 1.15691,-1.465508 2.27807,-2.377525 2.2512,-5.503999 -0.0678,-7.894286 -1.68989,-1.741804 -3.45208,-2.197558 -5.93216,-1.534237 -1.1378,0.304317 -1.15746,0.297733 -2.58667,-0.866376 -2.50175,-2.0377 -3.80475,-2.464779 -7.83193,-2.567039 l -3.48772,-0.08856 -0.24756,0.880061 c -0.13616,0.484034 -0.87581,3.142249 -1.64368,5.907145 -0.76786,2.764895 -1.47128,5.113475 -1.56315,5.219065 -0.16195,0.186126 -4.69889,1.449451 -6.17578,1.719664 -0.65261,0.119402 -1.19706,-0.321548 -5.09957,-4.130132 -2.40293,-2.345093 -4.46659,-4.263806 -4.5859,-4.263806 -0.18873,0 -7.93817,4.387762 -8.20515,4.645785 -0.0552,0.05337 0.58711,2.851658 1.42739,6.21842 l 1.52778,6.121387 -2.48572,2.477603 -2.48571,2.477606 -5.55625,-1.402262 c -3.05594,-0.771245 -5.80198,-1.482196 -6.10232,-1.579891 -0.47922,-0.155887 -0.80112,0.267967 -2.62965,3.462589 -1.14597,2.002123 -2.24929,3.901853 -2.45181,4.221625 -0.35061,0.553578 -0.15677,0.796984 4.05001,5.085882 l 4.41824,4.50448 -0.69118,2.454742 c -0.38015,1.35011 -0.76836,2.85196 -0.86269,3.33746 -0.20467,1.05346 -0.16669,1.03541 -5.12331,2.434 -2.11005,0.59538 -4.64279,1.31891 -5.62832,1.60784 l -1.79185,0.52534 0.0721,4.80914 0.0721,4.80915 6.06955,1.72632 6.06956,1.72633 0.21473,0.92604 c 0.1181,0.50932 0.52839,2.02588 0.91175,3.37012 l 0.69703,2.44407 -4.37245,4.57262 -4.37245,4.57262 2.37593,4.0958 c 1.30677,2.2527 2.41201,4.1327 2.45609,4.17778 0.0441,0.0451 2.63275,-0.58 5.75258,-1.38906 3.11983,-0.80907 5.87422,-1.47103 6.12085,-1.47103 0.24663,0 1.53957,1.09114 2.87319,2.42476 l 2.42476,2.42476 -1.51373,6.07815 c -0.83254,3.34298 -1.48042,6.10735 -1.43972,6.14304 0.0407,0.0357 1.92304,1.13112 4.18298,2.43429 l 4.10899,2.3694 4.4739,-4.34567 c 3.9519,-3.83863 4.55296,-4.32702 5.15143,-4.18574 0.37264,0.088 1.92769,0.49465 3.45565,0.90375 l 2.77813,0.74383 1.71979,6.01932 1.71979,6.01932 3.43959,-0.0874 c 3.21143,-0.0817 3.55366,-0.14201 5.15938,-0.90995 z m -3.96875,-14.3607 v -13.78778 h 1.13535 c 1.02185,0 1.42522,0.22547 4.03489,2.25537 1.59475,1.24045 4.17487,3.11569 5.73359,4.16719 2.38702,1.61026 2.83566,2.02194 2.84427,2.61001 0.0134,0.91827 -1.88264,6.40527 -3.15249,9.12283 -2.4578,5.25983 -5.91984,8.59249 -9.60343,9.24453 l -0.99218,0.17563 z m 3.0028,12.28109 c 3.71013,-1.75517 6.4644,-5.74393 8.99319,-13.02402 1.56426,-4.50332 1.69048,-3.97444 -1.46306,-6.13038 -1.50025,-1.02566 -4.03252,-2.88194 -5.62727,-4.12506 -2.05874,-1.60482 -3.11369,-2.26024 -3.63802,-2.26024 h -0.73848 v 13.09687 c 0,13.0516 0.002,13.09688 0.54555,13.09688 0.30005,0 1.1677,-0.29432 1.92809,-0.65405 z m 30.89818,-12.76251 c -0.52607,-2.61953 -2.01589,-4.20192 -4.55767,-4.84089 -2.00261,-0.50343 -4.55822,0.47073 -5.69779,2.17192 -0.27197,0.40599 -0.67308,0.73642 -0.89136,0.73428 -0.64455,-0.006 -6.36833,-3.17407 -6.53904,-3.61894 -0.0861,-0.22439 0.10902,-1.83828 0.43362,-3.58642 0.32459,-1.74814 0.80131,-4.89971 1.05937,-7.00347 l 0.4692,-3.82503 1.42853,-1.41583 1.42853,-1.41582 3.30729,-0.41552 c 1.81901,-0.22854 5.00902,-0.72259 7.0889,-1.09789 2.07989,-0.3753 3.94444,-0.61988 4.14345,-0.54351 0.47255,0.18133 3.04624,4.99189 4.38538,8.19685 2.36304,5.6554 3.16629,11.30071 2.02775,14.25115 -0.90817,2.35348 -3.52292,3.91943 -6.54447,3.91943 h -1.23837 z m 4.72457,0.28124 c 0.50734,-0.21103 1.20812,-0.6459 1.5573,-0.96637 3.11884,-2.86251 1.92699,-11.14903 -2.92008,-20.30229 -2.00828,-3.79245 -1.71196,-3.55503 -3.84072,-3.07733 -1.87366,0.42044 -7.7513,1.32811 -10.56718,1.63185 -1.48696,0.16039 -1.72068,0.27779 -2.86405,1.43862 l -1.24497,1.26398 -0.3762,3.27811 c -0.20691,1.80297 -0.67857,4.93785 -1.04813,6.96641 -0.63168,3.46738 -0.64452,3.70509 -0.21429,3.96875 0.2517,0.15426 1.5847,0.89594 2.96221,1.6482 l 2.50456,1.36774 1.14785,-1.14785 c 3.63757,-3.63757 9.57181,-1.8535 10.70697,3.21895 l 0.32678,1.46021 1.47376,-0.18264 c 0.81057,-0.10045 1.88886,-0.35531 2.39619,-0.56634 z m -26.32243,-8.0841 c -3.46835,-2.36889 -7.29189,-5.32367 -7.20935,-5.57129 0.048,-0.14394 1.09162,-0.55168 2.31919,-0.90608 2.34498,-0.677 6.08526,-2.32065 7.38191,-3.24394 1.29721,-0.9237 1.4413,-0.76644 1.25851,1.37354 -0.19678,2.30382 -1.14337,7.85595 -1.49871,8.79057 -0.13974,0.36756 -0.34632,0.66225 -0.45906,0.65488 -0.11275,-0.007 -0.91936,-0.50133 -1.79249,-1.09768 z m 2.49492,-3.916 c 0.31365,-1.96453 0.63457,-4.01451 0.71314,-4.55552 l 0.14286,-0.98364 -2.46921,1.292 c -1.35807,0.7106 -3.51101,1.61375 -4.78431,2.00701 -1.27331,0.39326 -2.31511,0.75356 -2.31511,0.80066 0,0.15448 3.2101,2.5598 5.51864,4.1351 1.60649,1.09623 2.3146,1.44695 2.44296,1.20997 0.0994,-0.18354 0.43738,-1.94105 0.75103,-3.90558 z m 8.22071,-13.35327 c 0,-0.20821 0.41792,-1.06913 0.92871,-1.91317 1.09156,-1.80369 2.30225,-4.82867 2.92528,-7.30896 0.24452,-0.97343 0.58885,-1.76627 0.76711,-1.76627 0.48531,0 6.75598,8.55724 6.75598,9.21951 0,0.31502 -1.60531,0.69333 -5.68854,1.34058 -5.18273,0.82153 -5.68854,0.85962 -5.68854,0.42831 z m 6.87916,-1.23435 c 1.81901,-0.30167 3.39858,-0.63338 3.51016,-0.73715 0.11158,-0.10377 -0.53183,-1.25229 -1.4298,-2.55226 -2.07191,-2.99947 -3.98084,-5.4461 -4.13158,-5.29536 -0.0641,0.0641 -0.52819,1.34534 -1.03121,2.84711 -0.50303,1.50177 -1.39688,3.61068 -1.98634,4.68646 l -1.07175,1.95597 1.41661,-0.17814 c 0.77914,-0.098 2.9049,-0.42496 4.72391,-0.72663 z m 5.65414,-1.88269 c -1.11059,-1.7777 -3.73801,-5.40537 -5.84022,-8.06358 l -1.93058,-2.44119 0.008,-2.18902 0.008,-2.18902 2.30752,-2.95832 c 1.26914,-1.62707 3.14096,-4.22213 4.15961,-5.76678 l 1.85208,-2.80847 1.08468,0.13386 c 1.82459,0.22519 7.48377,2.20933 10.55699,3.70135 9.16596,4.44999 11.83382,9.39257 7.7876,14.42756 -1.10853,1.37941 -1.44033,1.46634 -2.50299,0.65581 -1.18881,-0.90675 -3.15806,-1.48097 -4.34287,-1.26635 -3.16241,0.57285 -5.269,3.20796 -4.97881,6.22797 0.1151,1.19795 0.0689,1.33371 -0.56462,1.65882 -0.65779,0.33757 -6.20934,2.00184 -6.67759,2.00184 -0.1229,0 -0.53959,-0.50602 -0.92596,-1.12448 z m 6.0402,-0.96176 1.40254,-0.47567 0.15022,-1.8279 c 0.16982,-2.06627 0.60347,-3.04679 1.87772,-4.24568 1.43674,-1.35175 2.5396,-1.79673 4.47771,-1.80664 1.51498,-0.008 1.92422,0.10364 3.12644,0.85098 0.7608,0.47294 1.44061,0.8599 1.51068,0.8599 0.2538,0 1.45021,-1.477 1.93884,-2.39356 2.17056,-4.07144 -0.66591,-8.13142 -8.31911,-11.90755 -2.82658,-1.39465 -8.05961,-3.31818 -10.36187,-3.80876 -0.82444,-0.17567 -0.86846,-0.13192 -2.96439,2.9465 -1.17013,1.71866 -3.02383,4.25592 -4.11934,5.63837 l -1.99182,2.51354 -0.005,1.91269 -0.005,1.91269 1.75365,2.18835 c 1.90882,2.38198 5.05336,6.74676 5.92538,8.22471 l 0.54722,0.92749 1.82653,-0.5169 c 1.00458,-0.28429 2.45766,-0.73094 3.22905,-0.99256 z M 124.654,107.91042 c -0.79,-3.06985 -2.4044,-6.84593 -3.71191,-8.682152 -0.88441,-1.24204 -0.71861,-1.3996 1.25962,-1.19692 2.95631,0.30288 9.42664,1.46351 9.70376,1.74062 0.16989,0.16988 -0.19195,0.924392 -1.04624,2.181632 -2.43172,3.57869 -5.17514,7.0813 -5.54642,7.0813 -0.21285,0 -0.49209,-0.47661 -0.65881,-1.12448 z m 1.23952,-0.13229 c 1.41268,-1.78025 5.42326,-7.51888 5.32407,-7.61807 -0.12402,-0.12402 -6.82189,-1.272802 -8.86452,-1.520402 l -1.11471,-0.13512 0.79838,1.36257 c 1.23092,2.100802 2.07823,4.078792 2.70794,6.321512 0.31635,1.12669 0.62158,2.04942 0.6783,2.05053 0.0567,0.001 0.26846,-0.20636 0.47054,-0.46102 z m 6.12566,-9.726892 c -0.20387,-0.20387 -9.04657,-1.64642 -11.38401,-1.85712 l -2.03885,-0.18379 -1.41513,-1.491362 -1.41513,-1.491361 -0.32088,-3.115864 c -0.28274,-2.745544 -1.41531,-9.602539 -1.78751,-10.822278 -0.10106,-0.331179 0.35106,-0.728618 1.77471,-1.560076 4.42963,-2.587038 10.30132,-4.902386 14.08122,-5.552552 2.38676,-0.410538 5.85382,-0.215354 7.05105,0.396947 2.15076,1.099973 3.09795,2.497749 3.46925,5.11964 0.29379,2.074516 0.14012,2.701891 -0.66183,2.701891 -1.29798,0 -3.05432,0.847677 -4.09455,1.976194 -2.25409,2.445398 -2.15407,5.401413 0.26947,7.963953 l 1.31612,1.3916 -0.57232,1.147148 c -1.87322,3.75466 -3.01043,5.51277 -3.56585,5.51277 -0.31351,0 -0.6311,-0.0611 -0.70576,-0.13574 z m 2.69338,-3.669194 1.45521,-2.780808 -1.11195,-1.138899 c -1.32211,-1.35414 -1.9313,-2.692726 -1.92928,-4.239255 0.002,-1.809464 0.48875,-3.086926 1.65853,-4.355994 1.26442,-1.371735 2.09281,-1.853266 3.60389,-2.094897 l 1.0861,-0.173678 -0.002,-1.222954 c -0.002,-1.881 -0.49218,-3.234071 -1.55623,-4.298114 -2.29696,-2.296962 -6.95648,-2.368654 -13.20968,-0.203243 -2.50919,0.8689 -9.62483,4.289195 -10.09041,4.850181 -0.21324,0.256944 -0.11311,1.319966 0.37858,4.018994 0.36767,2.018303 0.83779,5.144797 1.04469,6.947763 l 0.37621,3.278116 1.23507,1.253932 c 1.22218,1.24083 1.25762,1.25585 3.39322,1.43799 2.01195,0.17159 8.66251,1.22262 10.7571,1.70001 0.50933,0.11608 1.04511,0.11894 1.19063,0.006 0.14552,-0.11259 0.91943,-1.45606 1.71979,-2.985505 z M 111.8261,90.462757 c -1.67806,-1.059166 -5.13223,-2.47823 -7.38624,-3.034464 -1.02322,-0.252502 -1.74188,-0.5706 -1.74188,-0.770993 0,-0.425 1.35883,-1.539285 5.42396,-4.447802 1.74625,-1.24941 3.36441,-2.273252 3.59591,-2.27521 0.29395,-0.0024 0.5121,0.415451 0.72317,1.385504 0.53747,2.470118 1.11529,6.103763 1.28324,8.069792 0.19326,2.262285 0.0838,2.324161 -1.89816,1.073173 z m 1.35742,-0.940882 c -0.45664,-3.139765 -1.31647,-8.200345 -1.45916,-8.587981 -0.13817,-0.375359 -0.70949,-0.06118 -3.36793,1.852084 -1.76085,1.267269 -3.59279,2.618144 -4.071,3.001944 l -0.86946,0.697817 1.55923,0.438949 c 2.33524,0.657405 5.37753,1.918838 6.71861,2.785753 0.65485,0.42331 1.29039,0.777298 1.41232,0.786638 0.12193,0.0093 0.15676,-0.429501 0.0774,-0.975204 z M 97.6709,72.757534 v -13.78778 l 0.99218,0.173338 c 1.42733,0.249359 4.04666,1.577084 4.92982,2.498904 l 0.75759,0.790755 -0.69396,1.392605 c -1.20117,2.410428 -0.75928,4.917498 1.19195,6.762584 1.04637,0.989438 1.99286,1.398206 3.779,1.632055 l 1.29929,0.170109 0.75123,2.236991 c 0.41317,1.230345 0.75123,2.501771 0.75123,2.825391 0,0.452591 -0.68702,1.05846 -2.97656,2.62496 -1.63711,1.120108 -4.24779,3.033604 -5.80151,4.252214 -2.48979,1.952779 -2.95281,2.215653 -3.90261,2.215653 H 97.6709 Z m 4.96073,10.848263 c 1.69599,-1.325692 4.16091,-3.12751 5.47759,-4.004037 1.31668,-0.876528 2.49826,-1.688047 2.62572,-1.803379 0.12985,-0.117489 -0.0921,-1.265362 -0.50473,-2.610546 -0.72014,-2.347603 -0.75462,-2.400888 -1.55466,-2.402332 -2.25169,-0.004 -4.76257,-1.679541 -5.74712,-3.834982 -0.66461,-1.455016 -0.63107,-3.55444 0.0833,-5.215074 l 0.57835,-1.344422 -0.77679,-0.645952 C 101.80042,60.9028 99.55187,59.828265 98.79535,59.82498 l -0.59531,-0.0026 v 13.096891 13.096875 h 0.67398 c 0.44727,0 1.71123,-0.810784 3.75759,-2.410349 z"
       id="path826"
       inkscape:connector-curvature="0"
       sodipodi:nodetypes="csccccccscccccsccscsccsccscccsscscccscscsscscscscscccccccccsscscccccscccsscccccscccssccccccccccscccccsscssccccccccccscccsccscssscccsccsccsscscccscssscsscccccccscccccccsscscscsccccccccccsccccccccsccscssccsccccsccccscccsccccsccscsscccsscccsccccccssccccsccssccsscssscscsccscsccccccsscssccsccccccccscsccccccsccccccssccscsccccccscsccccccsccssccssccccccccccccccccsccccccscccscccccccccccccsccccsccsscscccscccccccccccscc" />
    <circle
       style="opacity:1;fill:none;fill-opacity:0.94405589;fill-rule:evenodd;stroke:#447821;stroke-width:0.88349867;stroke-miterlimit:4;stroke-dasharray:none;stroke-opacity:1"
       id="path884"
       cx="98.229897"
       cy="114.28516"
       r="62.894478" />
    <ellipse
       style="opacity:1;fill:none;fill-opacity:1;fill-rule:evenodd;stroke:#447821;stroke-width:0.5;stroke-miterlimit:4;stroke-dasharray:none;stroke-opacity:1"
       id="path930"
       cx="108.69411"
       cy="66.457909"
       rx="6.0594735"
       ry="6.0129466" />
    <ellipse
       style="opacity:1;fill:none;fill-opacity:1;fill-rule:evenodd;stroke:#447821;stroke-width:0.5;stroke-miterlimit:4;stroke-dasharray:none;stroke-opacity:1"
       id="path930-6"
       cx="139.37393"
       cy="86.001472"
       rx="6.0594735"
       ry="6.0129466" />
    <ellipse
       style="opacity:1;fill:none;fill-opacity:1;fill-rule:evenodd;stroke:#447821;stroke-width:0.5;stroke-miterlimit:4;stroke-dasharray:none;stroke-opacity:1"
       id="path930-6-7"
       cx="147.12436"
       cy="123.68456"
       rx="6.0594735"
       ry="6.0129466" />
    <ellipse
       style="opacity:1;fill:none;fill-opacity:1;fill-rule:evenodd;stroke:#447821;stroke-width:0.5;stroke-miterlimit:4;stroke-dasharray:none;stroke-opacity:1"
       id="path930-6-7-5"
       cx="125.87753"
       cy="155.75526"
       rx="6.0594735"
       ry="6.0129466" />
    <circle
       style="opacity:1;fill:none;fill-opacity:0.94405589;fill-rule:evenodd;stroke:#447821;stroke-width:0.60000002;stroke-miterlimit:4;stroke-dasharray:none;stroke-opacity:1"
       id="path886"
       cx="98.229897"
       cy="114.28516"
       r="22.897171" />
    <flowRoot
       xml:space="preserve"
       id="flowRoot977"
       style="font-style:normal;font-variant:normal;font-weight:normal;font-stretch:normal;font-size:40px;line-height:1.25;font-family:'Libertinus Sans';-inkscape-font-specification:'Libertinus Sans';letter-spacing:0px;word-spacing:0px;fill:#447821;fill-opacity:1;stroke:none;"
       transform="matrix(0.49060102,0,0,0.49060102,132.01334,93.591273)"><flowRegion
         id="flowRegion979"
         style="font-style:normal;font-variant:normal;font-weight:normal;font-stretch:normal;font-family:'Libertinus Sans';-inkscape-font-specification:'Libertinus Sans';fill:#447821;fill-opacity:1;"><rect
           id="rect981"
           width="215.65657"
           height="115.65656"
           x="-174.74748"
           y="15.614005"
           style="font-style:normal;font-variant:normal;font-weight:normal;font-stretch:normal;font-family:'Libertinus Sans';-inkscape-font-specification:'Libertinus Sans';fill:#447821;fill-opacity:1;" /></flowRegion><flowPara
         id="flowPara983"
         style="font-style:normal;font-variant:normal;font-weight:bold;font-stretch:normal;font-size:40px;font-family:'Libertinus Sans';-inkscape-font-specification:'Libertinus Sans, Bold';font-variant-ligatures:normal;font-variant-caps:normal;font-variant-numeric:normal;font-feature-settings:normal;text-align:center;writing-mode:lr-tb;text-anchor:middle;fill:#447821;fill-opacity:1;">GREINER</flowPara></flowRoot>    <flowRoot
       xml:space="preserve"
       id="flowRoot977-9"
       style="font-style:normal;font-variant:normal;font-weight:normal;font-stretch:normal;font-size:40px;line-height:1.25;font-family:'Libertinus Sans';-inkscape-font-specification:'Libertinus Sans';letter-spacing:0px;word-spacing:0px;fill:#447821;fill-opacity:0.80978262;stroke:none;filter:url(#filter881)"
       transform="matrix(0.49060103,0,0,0.49060103,132.22638,93.422333)"><flowRegion
         id="flowRegion979-6"
         style="font-style:normal;font-variant:normal;font-weight:normal;font-stretch:normal;font-family:'Libertinus Sans';-inkscape-font-specification:'Libertinus Sans';fill:#447821;fill-opacity:0.80978262"><rect
           id="rect981-0"
           width="215.65657"
           height="115.65656"
           x="-174.74748"
           y="15.614005"
           style="font-style:normal;font-variant:normal;font-weight:normal;font-stretch:normal;font-family:'Libertinus Sans';-inkscape-font-specification:'Libertinus Sans';fill:#447821;fill-opacity:0.80978262" /></flowRegion><flowPara
         id="flowPara983-4"
         style="font-style:normal;font-variant:normal;font-weight:bold;font-stretch:normal;font-size:40px;font-family:'Libertinus Sans';-inkscape-font-specification:'Libertinus Sans, Bold';font-variant-ligatures:normal;font-variant-caps:normal;font-variant-numeric:normal;font-feature-settings:normal;text-align:center;writing-mode:lr-tb;text-anchor:middle;fill:#447821;fill-opacity:0.80978262">GREINER</flowPara></flowRoot>  </g>
</svg>
