; NON-PLATED HOLES START AT T1
; THROUGH (PLATED) HOLES START AT T100
M48
INCH
T100C0.042000
T101C0.035000
T102C0.038000
%
T100
X006235Y013979
X006235Y014979
X006235Y012979
T101
X002235Y007979
X002235Y016979
X002235Y011979
X002235Y002979
X002235Y012979
X006235Y002979
T102
X009235Y007979
X009235Y019979
X009235Y008979
X009235Y018979
X009235Y013979
X009235Y006979
X009235Y002979
X009235Y005979
X009235Y003979
X009235Y014979
T00
M30
