G04 MADE WITH FRITZING*
G04 WWW.FRITZING.ORG*
G04 DOUBLE SIDED*
G04 HOLES PLATED*
G04 CONTOUR ON CENTER OF CONTOUR VECTOR*
%ASAXBY*%
%FSLAX23Y23*%
%MOIN*%
%OFA0B0*%
%SFA1.0B1.0*%
%ADD10C,0.075000*%
%ADD11C,0.065278*%
%ADD12C,0.078000*%
%ADD13C,0.032000*%
%LNCOPPER1*%
G90*
G70*
G54D10*
X129Y2011D03*
X1608Y1001D03*
X2008Y1001D03*
G54D11*
X2108Y101D03*
X2208Y101D03*
X2308Y101D03*
X2408Y101D03*
X2508Y101D03*
X1648Y2001D03*
X1548Y2001D03*
X1448Y2001D03*
X1348Y2001D03*
X1248Y2001D03*
X1148Y2001D03*
X1048Y2001D03*
X948Y2001D03*
X848Y2001D03*
X748Y2001D03*
X2508Y2001D03*
X2408Y2001D03*
X2308Y2001D03*
X2208Y2001D03*
X2108Y2001D03*
X2008Y2001D03*
X1908Y2001D03*
X1808Y2001D03*
X1208Y101D03*
X1108Y101D03*
X1308Y101D03*
X1408Y101D03*
X1508Y101D03*
X1608Y101D03*
X1708Y101D03*
X1808Y101D03*
X2008Y101D03*
G54D12*
X2408Y1001D03*
X2408Y901D03*
G54D13*
X2026Y1001D02*
X2389Y1001D01*
D02*
X2008Y983D02*
X2008Y121D01*
G36*
X756Y2061D02*
X756Y2041D01*
X764Y2041D01*
X764Y2039D01*
X768Y2039D01*
X768Y2037D01*
X772Y2037D01*
X772Y2035D01*
X774Y2035D01*
X774Y2033D01*
X776Y2033D01*
X776Y2031D01*
X778Y2031D01*
X778Y2029D01*
X780Y2029D01*
X780Y2027D01*
X782Y2027D01*
X782Y2025D01*
X784Y2025D01*
X784Y2021D01*
X786Y2021D01*
X786Y2017D01*
X788Y2017D01*
X788Y2011D01*
X808Y2011D01*
X808Y2017D01*
X810Y2017D01*
X810Y2021D01*
X812Y2021D01*
X812Y2025D01*
X814Y2025D01*
X814Y2027D01*
X816Y2027D01*
X816Y2029D01*
X818Y2029D01*
X818Y2031D01*
X820Y2031D01*
X820Y2033D01*
X822Y2033D01*
X822Y2035D01*
X826Y2035D01*
X826Y2037D01*
X828Y2037D01*
X828Y2039D01*
X832Y2039D01*
X832Y2041D01*
X840Y2041D01*
X840Y2061D01*
X756Y2061D01*
G37*
D02*
G36*
X856Y2061D02*
X856Y2041D01*
X864Y2041D01*
X864Y2039D01*
X868Y2039D01*
X868Y2037D01*
X872Y2037D01*
X872Y2035D01*
X874Y2035D01*
X874Y2033D01*
X876Y2033D01*
X876Y2031D01*
X878Y2031D01*
X878Y2029D01*
X880Y2029D01*
X880Y2027D01*
X882Y2027D01*
X882Y2025D01*
X884Y2025D01*
X884Y2021D01*
X886Y2021D01*
X886Y2017D01*
X888Y2017D01*
X888Y2011D01*
X908Y2011D01*
X908Y2017D01*
X910Y2017D01*
X910Y2021D01*
X912Y2021D01*
X912Y2025D01*
X914Y2025D01*
X914Y2027D01*
X916Y2027D01*
X916Y2029D01*
X918Y2029D01*
X918Y2031D01*
X920Y2031D01*
X920Y2033D01*
X922Y2033D01*
X922Y2035D01*
X926Y2035D01*
X926Y2037D01*
X928Y2037D01*
X928Y2039D01*
X932Y2039D01*
X932Y2041D01*
X940Y2041D01*
X940Y2061D01*
X856Y2061D01*
G37*
D02*
G36*
X956Y2061D02*
X956Y2041D01*
X964Y2041D01*
X964Y2039D01*
X968Y2039D01*
X968Y2037D01*
X972Y2037D01*
X972Y2035D01*
X974Y2035D01*
X974Y2033D01*
X976Y2033D01*
X976Y2031D01*
X978Y2031D01*
X978Y2029D01*
X980Y2029D01*
X980Y2027D01*
X982Y2027D01*
X982Y2025D01*
X984Y2025D01*
X984Y2021D01*
X986Y2021D01*
X986Y2017D01*
X988Y2017D01*
X988Y2011D01*
X1008Y2011D01*
X1008Y2017D01*
X1010Y2017D01*
X1010Y2021D01*
X1012Y2021D01*
X1012Y2025D01*
X1014Y2025D01*
X1014Y2027D01*
X1016Y2027D01*
X1016Y2029D01*
X1018Y2029D01*
X1018Y2031D01*
X1020Y2031D01*
X1020Y2033D01*
X1022Y2033D01*
X1022Y2035D01*
X1026Y2035D01*
X1026Y2037D01*
X1028Y2037D01*
X1028Y2039D01*
X1032Y2039D01*
X1032Y2041D01*
X1040Y2041D01*
X1040Y2061D01*
X956Y2061D01*
G37*
D02*
G36*
X1056Y2061D02*
X1056Y2041D01*
X1064Y2041D01*
X1064Y2039D01*
X1068Y2039D01*
X1068Y2037D01*
X1072Y2037D01*
X1072Y2035D01*
X1074Y2035D01*
X1074Y2033D01*
X1076Y2033D01*
X1076Y2031D01*
X1078Y2031D01*
X1078Y2029D01*
X1080Y2029D01*
X1080Y2027D01*
X1082Y2027D01*
X1082Y2025D01*
X1084Y2025D01*
X1084Y2021D01*
X1086Y2021D01*
X1086Y2017D01*
X1088Y2017D01*
X1088Y2011D01*
X1108Y2011D01*
X1108Y2017D01*
X1110Y2017D01*
X1110Y2021D01*
X1112Y2021D01*
X1112Y2025D01*
X1114Y2025D01*
X1114Y2027D01*
X1116Y2027D01*
X1116Y2029D01*
X1118Y2029D01*
X1118Y2031D01*
X1120Y2031D01*
X1120Y2033D01*
X1122Y2033D01*
X1122Y2035D01*
X1126Y2035D01*
X1126Y2037D01*
X1128Y2037D01*
X1128Y2039D01*
X1132Y2039D01*
X1132Y2041D01*
X1140Y2041D01*
X1140Y2061D01*
X1056Y2061D01*
G37*
D02*
G36*
X1156Y2061D02*
X1156Y2041D01*
X1164Y2041D01*
X1164Y2039D01*
X1168Y2039D01*
X1168Y2037D01*
X1172Y2037D01*
X1172Y2035D01*
X1174Y2035D01*
X1174Y2033D01*
X1176Y2033D01*
X1176Y2031D01*
X1178Y2031D01*
X1178Y2029D01*
X1180Y2029D01*
X1180Y2027D01*
X1182Y2027D01*
X1182Y2025D01*
X1184Y2025D01*
X1184Y2021D01*
X1186Y2021D01*
X1186Y2017D01*
X1188Y2017D01*
X1188Y2011D01*
X1208Y2011D01*
X1208Y2017D01*
X1210Y2017D01*
X1210Y2021D01*
X1212Y2021D01*
X1212Y2025D01*
X1214Y2025D01*
X1214Y2027D01*
X1216Y2027D01*
X1216Y2029D01*
X1218Y2029D01*
X1218Y2031D01*
X1220Y2031D01*
X1220Y2033D01*
X1222Y2033D01*
X1222Y2035D01*
X1226Y2035D01*
X1226Y2037D01*
X1228Y2037D01*
X1228Y2039D01*
X1232Y2039D01*
X1232Y2041D01*
X1240Y2041D01*
X1240Y2061D01*
X1156Y2061D01*
G37*
D02*
G36*
X1256Y2061D02*
X1256Y2041D01*
X1264Y2041D01*
X1264Y2039D01*
X1268Y2039D01*
X1268Y2037D01*
X1272Y2037D01*
X1272Y2035D01*
X1274Y2035D01*
X1274Y2033D01*
X1276Y2033D01*
X1276Y2031D01*
X1278Y2031D01*
X1278Y2029D01*
X1280Y2029D01*
X1280Y2027D01*
X1282Y2027D01*
X1282Y2025D01*
X1284Y2025D01*
X1284Y2021D01*
X1286Y2021D01*
X1286Y2017D01*
X1288Y2017D01*
X1288Y2011D01*
X1308Y2011D01*
X1308Y2017D01*
X1310Y2017D01*
X1310Y2021D01*
X1312Y2021D01*
X1312Y2025D01*
X1314Y2025D01*
X1314Y2027D01*
X1316Y2027D01*
X1316Y2029D01*
X1318Y2029D01*
X1318Y2031D01*
X1320Y2031D01*
X1320Y2033D01*
X1322Y2033D01*
X1322Y2035D01*
X1326Y2035D01*
X1326Y2037D01*
X1328Y2037D01*
X1328Y2039D01*
X1332Y2039D01*
X1332Y2041D01*
X1340Y2041D01*
X1340Y2061D01*
X1256Y2061D01*
G37*
D02*
G36*
X1356Y2061D02*
X1356Y2041D01*
X1364Y2041D01*
X1364Y2039D01*
X1368Y2039D01*
X1368Y2037D01*
X1372Y2037D01*
X1372Y2035D01*
X1374Y2035D01*
X1374Y2033D01*
X1376Y2033D01*
X1376Y2031D01*
X1378Y2031D01*
X1378Y2029D01*
X1380Y2029D01*
X1380Y2027D01*
X1382Y2027D01*
X1382Y2025D01*
X1384Y2025D01*
X1384Y2021D01*
X1386Y2021D01*
X1386Y2017D01*
X1388Y2017D01*
X1388Y2011D01*
X1408Y2011D01*
X1408Y2017D01*
X1410Y2017D01*
X1410Y2021D01*
X1412Y2021D01*
X1412Y2025D01*
X1414Y2025D01*
X1414Y2027D01*
X1416Y2027D01*
X1416Y2029D01*
X1418Y2029D01*
X1418Y2031D01*
X1420Y2031D01*
X1420Y2033D01*
X1422Y2033D01*
X1422Y2035D01*
X1426Y2035D01*
X1426Y2037D01*
X1428Y2037D01*
X1428Y2039D01*
X1432Y2039D01*
X1432Y2041D01*
X1440Y2041D01*
X1440Y2061D01*
X1356Y2061D01*
G37*
D02*
G36*
X1456Y2061D02*
X1456Y2041D01*
X1464Y2041D01*
X1464Y2039D01*
X1468Y2039D01*
X1468Y2037D01*
X1472Y2037D01*
X1472Y2035D01*
X1474Y2035D01*
X1474Y2033D01*
X1476Y2033D01*
X1476Y2031D01*
X1478Y2031D01*
X1478Y2029D01*
X1480Y2029D01*
X1480Y2027D01*
X1482Y2027D01*
X1482Y2025D01*
X1484Y2025D01*
X1484Y2021D01*
X1486Y2021D01*
X1486Y2017D01*
X1488Y2017D01*
X1488Y2011D01*
X1508Y2011D01*
X1508Y2017D01*
X1510Y2017D01*
X1510Y2021D01*
X1512Y2021D01*
X1512Y2025D01*
X1514Y2025D01*
X1514Y2027D01*
X1516Y2027D01*
X1516Y2029D01*
X1518Y2029D01*
X1518Y2031D01*
X1520Y2031D01*
X1520Y2033D01*
X1522Y2033D01*
X1522Y2035D01*
X1526Y2035D01*
X1526Y2037D01*
X1528Y2037D01*
X1528Y2039D01*
X1532Y2039D01*
X1532Y2041D01*
X1540Y2041D01*
X1540Y2061D01*
X1456Y2061D01*
G37*
D02*
G36*
X1556Y2061D02*
X1556Y2041D01*
X1564Y2041D01*
X1564Y2039D01*
X1568Y2039D01*
X1568Y2037D01*
X1572Y2037D01*
X1572Y2035D01*
X1574Y2035D01*
X1574Y2033D01*
X1576Y2033D01*
X1576Y2031D01*
X1578Y2031D01*
X1578Y2029D01*
X1580Y2029D01*
X1580Y2027D01*
X1582Y2027D01*
X1582Y2025D01*
X1584Y2025D01*
X1584Y2021D01*
X1586Y2021D01*
X1586Y2017D01*
X1588Y2017D01*
X1588Y2011D01*
X1608Y2011D01*
X1608Y2017D01*
X1610Y2017D01*
X1610Y2021D01*
X1612Y2021D01*
X1612Y2025D01*
X1614Y2025D01*
X1614Y2027D01*
X1616Y2027D01*
X1616Y2029D01*
X1618Y2029D01*
X1618Y2031D01*
X1620Y2031D01*
X1620Y2033D01*
X1622Y2033D01*
X1622Y2035D01*
X1626Y2035D01*
X1626Y2037D01*
X1628Y2037D01*
X1628Y2039D01*
X1632Y2039D01*
X1632Y2041D01*
X1640Y2041D01*
X1640Y2061D01*
X1556Y2061D01*
G37*
D02*
G36*
X1816Y2061D02*
X1816Y2041D01*
X1824Y2041D01*
X1824Y2039D01*
X1828Y2039D01*
X1828Y2037D01*
X1832Y2037D01*
X1832Y2035D01*
X1834Y2035D01*
X1834Y2033D01*
X1836Y2033D01*
X1836Y2031D01*
X1838Y2031D01*
X1838Y2029D01*
X1840Y2029D01*
X1840Y2027D01*
X1842Y2027D01*
X1842Y2025D01*
X1844Y2025D01*
X1844Y2021D01*
X1846Y2021D01*
X1846Y2017D01*
X1848Y2017D01*
X1848Y2011D01*
X1868Y2011D01*
X1868Y2017D01*
X1870Y2017D01*
X1870Y2021D01*
X1872Y2021D01*
X1872Y2025D01*
X1874Y2025D01*
X1874Y2027D01*
X1876Y2027D01*
X1876Y2029D01*
X1878Y2029D01*
X1878Y2031D01*
X1880Y2031D01*
X1880Y2033D01*
X1882Y2033D01*
X1882Y2035D01*
X1886Y2035D01*
X1886Y2037D01*
X1888Y2037D01*
X1888Y2039D01*
X1892Y2039D01*
X1892Y2041D01*
X1900Y2041D01*
X1900Y2061D01*
X1816Y2061D01*
G37*
D02*
G36*
X1916Y2061D02*
X1916Y2041D01*
X1924Y2041D01*
X1924Y2039D01*
X1928Y2039D01*
X1928Y2037D01*
X1932Y2037D01*
X1932Y2035D01*
X1934Y2035D01*
X1934Y2033D01*
X1936Y2033D01*
X1936Y2031D01*
X1938Y2031D01*
X1938Y2029D01*
X1940Y2029D01*
X1940Y2027D01*
X1942Y2027D01*
X1942Y2025D01*
X1944Y2025D01*
X1944Y2021D01*
X1946Y2021D01*
X1946Y2017D01*
X1948Y2017D01*
X1948Y2011D01*
X1968Y2011D01*
X1968Y2017D01*
X1970Y2017D01*
X1970Y2021D01*
X1972Y2021D01*
X1972Y2025D01*
X1974Y2025D01*
X1974Y2027D01*
X1976Y2027D01*
X1976Y2029D01*
X1978Y2029D01*
X1978Y2031D01*
X1980Y2031D01*
X1980Y2033D01*
X1982Y2033D01*
X1982Y2035D01*
X1986Y2035D01*
X1986Y2037D01*
X1988Y2037D01*
X1988Y2039D01*
X1992Y2039D01*
X1992Y2041D01*
X2000Y2041D01*
X2000Y2061D01*
X1916Y2061D01*
G37*
D02*
G36*
X2016Y2061D02*
X2016Y2041D01*
X2024Y2041D01*
X2024Y2039D01*
X2028Y2039D01*
X2028Y2037D01*
X2032Y2037D01*
X2032Y2035D01*
X2034Y2035D01*
X2034Y2033D01*
X2036Y2033D01*
X2036Y2031D01*
X2038Y2031D01*
X2038Y2029D01*
X2040Y2029D01*
X2040Y2027D01*
X2042Y2027D01*
X2042Y2025D01*
X2044Y2025D01*
X2044Y2021D01*
X2046Y2021D01*
X2046Y2017D01*
X2048Y2017D01*
X2048Y2011D01*
X2068Y2011D01*
X2068Y2017D01*
X2070Y2017D01*
X2070Y2021D01*
X2072Y2021D01*
X2072Y2025D01*
X2074Y2025D01*
X2074Y2027D01*
X2076Y2027D01*
X2076Y2029D01*
X2078Y2029D01*
X2078Y2031D01*
X2080Y2031D01*
X2080Y2033D01*
X2082Y2033D01*
X2082Y2035D01*
X2086Y2035D01*
X2086Y2037D01*
X2088Y2037D01*
X2088Y2039D01*
X2092Y2039D01*
X2092Y2041D01*
X2100Y2041D01*
X2100Y2061D01*
X2016Y2061D01*
G37*
D02*
G36*
X2116Y2061D02*
X2116Y2041D01*
X2124Y2041D01*
X2124Y2039D01*
X2128Y2039D01*
X2128Y2037D01*
X2132Y2037D01*
X2132Y2035D01*
X2134Y2035D01*
X2134Y2033D01*
X2136Y2033D01*
X2136Y2031D01*
X2138Y2031D01*
X2138Y2029D01*
X2140Y2029D01*
X2140Y2027D01*
X2142Y2027D01*
X2142Y2025D01*
X2144Y2025D01*
X2144Y2021D01*
X2146Y2021D01*
X2146Y2017D01*
X2148Y2017D01*
X2148Y2011D01*
X2168Y2011D01*
X2168Y2017D01*
X2170Y2017D01*
X2170Y2021D01*
X2172Y2021D01*
X2172Y2025D01*
X2174Y2025D01*
X2174Y2027D01*
X2176Y2027D01*
X2176Y2029D01*
X2178Y2029D01*
X2178Y2031D01*
X2180Y2031D01*
X2180Y2033D01*
X2182Y2033D01*
X2182Y2035D01*
X2186Y2035D01*
X2186Y2037D01*
X2188Y2037D01*
X2188Y2039D01*
X2192Y2039D01*
X2192Y2041D01*
X2200Y2041D01*
X2200Y2061D01*
X2116Y2061D01*
G37*
D02*
G36*
X2216Y2061D02*
X2216Y2041D01*
X2224Y2041D01*
X2224Y2039D01*
X2228Y2039D01*
X2228Y2037D01*
X2232Y2037D01*
X2232Y2035D01*
X2234Y2035D01*
X2234Y2033D01*
X2236Y2033D01*
X2236Y2031D01*
X2238Y2031D01*
X2238Y2029D01*
X2240Y2029D01*
X2240Y2027D01*
X2242Y2027D01*
X2242Y2025D01*
X2244Y2025D01*
X2244Y2021D01*
X2246Y2021D01*
X2246Y2017D01*
X2248Y2017D01*
X2248Y2011D01*
X2268Y2011D01*
X2268Y2017D01*
X2270Y2017D01*
X2270Y2021D01*
X2272Y2021D01*
X2272Y2025D01*
X2274Y2025D01*
X2274Y2027D01*
X2276Y2027D01*
X2276Y2029D01*
X2278Y2029D01*
X2278Y2031D01*
X2280Y2031D01*
X2280Y2033D01*
X2282Y2033D01*
X2282Y2035D01*
X2286Y2035D01*
X2286Y2037D01*
X2288Y2037D01*
X2288Y2039D01*
X2292Y2039D01*
X2292Y2041D01*
X2300Y2041D01*
X2300Y2061D01*
X2216Y2061D01*
G37*
D02*
G36*
X2316Y2061D02*
X2316Y2041D01*
X2324Y2041D01*
X2324Y2039D01*
X2328Y2039D01*
X2328Y2037D01*
X2332Y2037D01*
X2332Y2035D01*
X2334Y2035D01*
X2334Y2033D01*
X2336Y2033D01*
X2336Y2031D01*
X2338Y2031D01*
X2338Y2029D01*
X2340Y2029D01*
X2340Y2027D01*
X2342Y2027D01*
X2342Y2025D01*
X2344Y2025D01*
X2344Y2021D01*
X2346Y2021D01*
X2346Y2017D01*
X2348Y2017D01*
X2348Y2011D01*
X2368Y2011D01*
X2368Y2017D01*
X2370Y2017D01*
X2370Y2021D01*
X2372Y2021D01*
X2372Y2025D01*
X2374Y2025D01*
X2374Y2027D01*
X2376Y2027D01*
X2376Y2029D01*
X2378Y2029D01*
X2378Y2031D01*
X2380Y2031D01*
X2380Y2033D01*
X2382Y2033D01*
X2382Y2035D01*
X2386Y2035D01*
X2386Y2037D01*
X2388Y2037D01*
X2388Y2039D01*
X2392Y2039D01*
X2392Y2041D01*
X2400Y2041D01*
X2400Y2061D01*
X2316Y2061D01*
G37*
D02*
G36*
X2416Y2061D02*
X2416Y2041D01*
X2424Y2041D01*
X2424Y2039D01*
X2428Y2039D01*
X2428Y2037D01*
X2432Y2037D01*
X2432Y2035D01*
X2434Y2035D01*
X2434Y2033D01*
X2436Y2033D01*
X2436Y2031D01*
X2438Y2031D01*
X2438Y2029D01*
X2440Y2029D01*
X2440Y2027D01*
X2442Y2027D01*
X2442Y2025D01*
X2444Y2025D01*
X2444Y2021D01*
X2446Y2021D01*
X2446Y2017D01*
X2448Y2017D01*
X2448Y2011D01*
X2468Y2011D01*
X2468Y2017D01*
X2470Y2017D01*
X2470Y2021D01*
X2472Y2021D01*
X2472Y2025D01*
X2474Y2025D01*
X2474Y2027D01*
X2476Y2027D01*
X2476Y2029D01*
X2478Y2029D01*
X2478Y2031D01*
X2480Y2031D01*
X2480Y2033D01*
X2482Y2033D01*
X2482Y2035D01*
X2486Y2035D01*
X2486Y2037D01*
X2488Y2037D01*
X2488Y2039D01*
X2492Y2039D01*
X2492Y2041D01*
X2500Y2041D01*
X2500Y2061D01*
X2416Y2061D01*
G37*
D02*
G36*
X74Y2061D02*
X74Y2059D01*
X68Y2059D01*
X68Y2057D01*
X66Y2057D01*
X66Y2055D01*
X62Y2055D01*
X62Y2053D01*
X60Y2053D01*
X60Y2051D01*
X58Y2051D01*
X58Y2049D01*
X56Y2049D01*
X56Y2045D01*
X54Y2045D01*
X54Y2043D01*
X52Y2043D01*
X52Y2037D01*
X50Y2037D01*
X50Y1957D01*
X744Y1957D01*
X744Y1959D01*
X736Y1959D01*
X736Y1961D01*
X730Y1961D01*
X730Y1963D01*
X726Y1963D01*
X726Y1965D01*
X724Y1965D01*
X724Y1967D01*
X720Y1967D01*
X720Y1969D01*
X718Y1969D01*
X718Y1971D01*
X716Y1971D01*
X716Y1973D01*
X714Y1973D01*
X714Y1977D01*
X712Y1977D01*
X712Y1979D01*
X710Y1979D01*
X710Y1983D01*
X708Y1983D01*
X708Y1991D01*
X706Y1991D01*
X706Y2011D01*
X708Y2011D01*
X708Y2017D01*
X710Y2017D01*
X710Y2021D01*
X712Y2021D01*
X712Y2025D01*
X714Y2025D01*
X714Y2027D01*
X716Y2027D01*
X716Y2029D01*
X718Y2029D01*
X718Y2031D01*
X720Y2031D01*
X720Y2033D01*
X722Y2033D01*
X722Y2035D01*
X726Y2035D01*
X726Y2037D01*
X728Y2037D01*
X728Y2039D01*
X732Y2039D01*
X732Y2041D01*
X740Y2041D01*
X740Y2061D01*
X74Y2061D01*
G37*
D02*
G36*
X1656Y2061D02*
X1656Y2041D01*
X1664Y2041D01*
X1664Y2039D01*
X1668Y2039D01*
X1668Y2037D01*
X1672Y2037D01*
X1672Y2035D01*
X1674Y2035D01*
X1674Y2033D01*
X1676Y2033D01*
X1676Y2031D01*
X1678Y2031D01*
X1678Y2029D01*
X1680Y2029D01*
X1680Y2027D01*
X1682Y2027D01*
X1682Y2025D01*
X1684Y2025D01*
X1684Y2021D01*
X1686Y2021D01*
X1686Y2017D01*
X1688Y2017D01*
X1688Y2011D01*
X1690Y2011D01*
X1690Y1989D01*
X1688Y1989D01*
X1688Y1983D01*
X1686Y1983D01*
X1686Y1979D01*
X1684Y1979D01*
X1684Y1975D01*
X1682Y1975D01*
X1682Y1973D01*
X1680Y1973D01*
X1680Y1971D01*
X1678Y1971D01*
X1678Y1969D01*
X1676Y1969D01*
X1676Y1967D01*
X1674Y1967D01*
X1674Y1965D01*
X1670Y1965D01*
X1670Y1963D01*
X1666Y1963D01*
X1666Y1961D01*
X1662Y1961D01*
X1662Y1959D01*
X1652Y1959D01*
X1652Y1957D01*
X1804Y1957D01*
X1804Y1959D01*
X1796Y1959D01*
X1796Y1961D01*
X1790Y1961D01*
X1790Y1963D01*
X1786Y1963D01*
X1786Y1965D01*
X1784Y1965D01*
X1784Y1967D01*
X1780Y1967D01*
X1780Y1969D01*
X1778Y1969D01*
X1778Y1971D01*
X1776Y1971D01*
X1776Y1973D01*
X1774Y1973D01*
X1774Y1977D01*
X1772Y1977D01*
X1772Y1979D01*
X1770Y1979D01*
X1770Y1983D01*
X1768Y1983D01*
X1768Y1991D01*
X1766Y1991D01*
X1766Y2011D01*
X1768Y2011D01*
X1768Y2017D01*
X1770Y2017D01*
X1770Y2021D01*
X1772Y2021D01*
X1772Y2025D01*
X1774Y2025D01*
X1774Y2027D01*
X1776Y2027D01*
X1776Y2029D01*
X1778Y2029D01*
X1778Y2031D01*
X1780Y2031D01*
X1780Y2033D01*
X1782Y2033D01*
X1782Y2035D01*
X1786Y2035D01*
X1786Y2037D01*
X1788Y2037D01*
X1788Y2039D01*
X1792Y2039D01*
X1792Y2041D01*
X1800Y2041D01*
X1800Y2061D01*
X1656Y2061D01*
G37*
D02*
G36*
X788Y1989D02*
X788Y1983D01*
X786Y1983D01*
X786Y1979D01*
X784Y1979D01*
X784Y1975D01*
X782Y1975D01*
X782Y1973D01*
X780Y1973D01*
X780Y1971D01*
X778Y1971D01*
X778Y1969D01*
X776Y1969D01*
X776Y1967D01*
X774Y1967D01*
X774Y1965D01*
X770Y1965D01*
X770Y1963D01*
X766Y1963D01*
X766Y1961D01*
X762Y1961D01*
X762Y1959D01*
X752Y1959D01*
X752Y1957D01*
X844Y1957D01*
X844Y1959D01*
X836Y1959D01*
X836Y1961D01*
X830Y1961D01*
X830Y1963D01*
X826Y1963D01*
X826Y1965D01*
X824Y1965D01*
X824Y1967D01*
X820Y1967D01*
X820Y1969D01*
X818Y1969D01*
X818Y1971D01*
X816Y1971D01*
X816Y1973D01*
X814Y1973D01*
X814Y1977D01*
X812Y1977D01*
X812Y1979D01*
X810Y1979D01*
X810Y1983D01*
X808Y1983D01*
X808Y1989D01*
X788Y1989D01*
G37*
D02*
G36*
X888Y1989D02*
X888Y1983D01*
X886Y1983D01*
X886Y1979D01*
X884Y1979D01*
X884Y1975D01*
X882Y1975D01*
X882Y1973D01*
X880Y1973D01*
X880Y1971D01*
X878Y1971D01*
X878Y1969D01*
X876Y1969D01*
X876Y1967D01*
X874Y1967D01*
X874Y1965D01*
X870Y1965D01*
X870Y1963D01*
X866Y1963D01*
X866Y1961D01*
X862Y1961D01*
X862Y1959D01*
X852Y1959D01*
X852Y1957D01*
X944Y1957D01*
X944Y1959D01*
X936Y1959D01*
X936Y1961D01*
X930Y1961D01*
X930Y1963D01*
X926Y1963D01*
X926Y1965D01*
X924Y1965D01*
X924Y1967D01*
X920Y1967D01*
X920Y1969D01*
X918Y1969D01*
X918Y1971D01*
X916Y1971D01*
X916Y1973D01*
X914Y1973D01*
X914Y1977D01*
X912Y1977D01*
X912Y1979D01*
X910Y1979D01*
X910Y1983D01*
X908Y1983D01*
X908Y1989D01*
X888Y1989D01*
G37*
D02*
G36*
X988Y1989D02*
X988Y1983D01*
X986Y1983D01*
X986Y1979D01*
X984Y1979D01*
X984Y1975D01*
X982Y1975D01*
X982Y1973D01*
X980Y1973D01*
X980Y1971D01*
X978Y1971D01*
X978Y1969D01*
X976Y1969D01*
X976Y1967D01*
X974Y1967D01*
X974Y1965D01*
X970Y1965D01*
X970Y1963D01*
X966Y1963D01*
X966Y1961D01*
X962Y1961D01*
X962Y1959D01*
X952Y1959D01*
X952Y1957D01*
X1044Y1957D01*
X1044Y1959D01*
X1036Y1959D01*
X1036Y1961D01*
X1030Y1961D01*
X1030Y1963D01*
X1026Y1963D01*
X1026Y1965D01*
X1024Y1965D01*
X1024Y1967D01*
X1020Y1967D01*
X1020Y1969D01*
X1018Y1969D01*
X1018Y1971D01*
X1016Y1971D01*
X1016Y1973D01*
X1014Y1973D01*
X1014Y1977D01*
X1012Y1977D01*
X1012Y1979D01*
X1010Y1979D01*
X1010Y1983D01*
X1008Y1983D01*
X1008Y1989D01*
X988Y1989D01*
G37*
D02*
G36*
X1088Y1989D02*
X1088Y1983D01*
X1086Y1983D01*
X1086Y1979D01*
X1084Y1979D01*
X1084Y1975D01*
X1082Y1975D01*
X1082Y1973D01*
X1080Y1973D01*
X1080Y1971D01*
X1078Y1971D01*
X1078Y1969D01*
X1076Y1969D01*
X1076Y1967D01*
X1074Y1967D01*
X1074Y1965D01*
X1070Y1965D01*
X1070Y1963D01*
X1066Y1963D01*
X1066Y1961D01*
X1062Y1961D01*
X1062Y1959D01*
X1052Y1959D01*
X1052Y1957D01*
X1144Y1957D01*
X1144Y1959D01*
X1136Y1959D01*
X1136Y1961D01*
X1130Y1961D01*
X1130Y1963D01*
X1126Y1963D01*
X1126Y1965D01*
X1124Y1965D01*
X1124Y1967D01*
X1120Y1967D01*
X1120Y1969D01*
X1118Y1969D01*
X1118Y1971D01*
X1116Y1971D01*
X1116Y1973D01*
X1114Y1973D01*
X1114Y1977D01*
X1112Y1977D01*
X1112Y1979D01*
X1110Y1979D01*
X1110Y1983D01*
X1108Y1983D01*
X1108Y1989D01*
X1088Y1989D01*
G37*
D02*
G36*
X1188Y1989D02*
X1188Y1983D01*
X1186Y1983D01*
X1186Y1979D01*
X1184Y1979D01*
X1184Y1975D01*
X1182Y1975D01*
X1182Y1973D01*
X1180Y1973D01*
X1180Y1971D01*
X1178Y1971D01*
X1178Y1969D01*
X1176Y1969D01*
X1176Y1967D01*
X1174Y1967D01*
X1174Y1965D01*
X1170Y1965D01*
X1170Y1963D01*
X1166Y1963D01*
X1166Y1961D01*
X1162Y1961D01*
X1162Y1959D01*
X1152Y1959D01*
X1152Y1957D01*
X1244Y1957D01*
X1244Y1959D01*
X1236Y1959D01*
X1236Y1961D01*
X1230Y1961D01*
X1230Y1963D01*
X1226Y1963D01*
X1226Y1965D01*
X1224Y1965D01*
X1224Y1967D01*
X1220Y1967D01*
X1220Y1969D01*
X1218Y1969D01*
X1218Y1971D01*
X1216Y1971D01*
X1216Y1973D01*
X1214Y1973D01*
X1214Y1977D01*
X1212Y1977D01*
X1212Y1979D01*
X1210Y1979D01*
X1210Y1983D01*
X1208Y1983D01*
X1208Y1989D01*
X1188Y1989D01*
G37*
D02*
G36*
X1288Y1989D02*
X1288Y1983D01*
X1286Y1983D01*
X1286Y1979D01*
X1284Y1979D01*
X1284Y1975D01*
X1282Y1975D01*
X1282Y1973D01*
X1280Y1973D01*
X1280Y1971D01*
X1278Y1971D01*
X1278Y1969D01*
X1276Y1969D01*
X1276Y1967D01*
X1274Y1967D01*
X1274Y1965D01*
X1270Y1965D01*
X1270Y1963D01*
X1266Y1963D01*
X1266Y1961D01*
X1262Y1961D01*
X1262Y1959D01*
X1252Y1959D01*
X1252Y1957D01*
X1344Y1957D01*
X1344Y1959D01*
X1336Y1959D01*
X1336Y1961D01*
X1330Y1961D01*
X1330Y1963D01*
X1326Y1963D01*
X1326Y1965D01*
X1324Y1965D01*
X1324Y1967D01*
X1320Y1967D01*
X1320Y1969D01*
X1318Y1969D01*
X1318Y1971D01*
X1316Y1971D01*
X1316Y1973D01*
X1314Y1973D01*
X1314Y1977D01*
X1312Y1977D01*
X1312Y1979D01*
X1310Y1979D01*
X1310Y1983D01*
X1308Y1983D01*
X1308Y1989D01*
X1288Y1989D01*
G37*
D02*
G36*
X1388Y1989D02*
X1388Y1983D01*
X1386Y1983D01*
X1386Y1979D01*
X1384Y1979D01*
X1384Y1975D01*
X1382Y1975D01*
X1382Y1973D01*
X1380Y1973D01*
X1380Y1971D01*
X1378Y1971D01*
X1378Y1969D01*
X1376Y1969D01*
X1376Y1967D01*
X1374Y1967D01*
X1374Y1965D01*
X1370Y1965D01*
X1370Y1963D01*
X1366Y1963D01*
X1366Y1961D01*
X1362Y1961D01*
X1362Y1959D01*
X1352Y1959D01*
X1352Y1957D01*
X1444Y1957D01*
X1444Y1959D01*
X1436Y1959D01*
X1436Y1961D01*
X1430Y1961D01*
X1430Y1963D01*
X1426Y1963D01*
X1426Y1965D01*
X1424Y1965D01*
X1424Y1967D01*
X1420Y1967D01*
X1420Y1969D01*
X1418Y1969D01*
X1418Y1971D01*
X1416Y1971D01*
X1416Y1973D01*
X1414Y1973D01*
X1414Y1977D01*
X1412Y1977D01*
X1412Y1979D01*
X1410Y1979D01*
X1410Y1983D01*
X1408Y1983D01*
X1408Y1989D01*
X1388Y1989D01*
G37*
D02*
G36*
X1488Y1989D02*
X1488Y1983D01*
X1486Y1983D01*
X1486Y1979D01*
X1484Y1979D01*
X1484Y1975D01*
X1482Y1975D01*
X1482Y1973D01*
X1480Y1973D01*
X1480Y1971D01*
X1478Y1971D01*
X1478Y1969D01*
X1476Y1969D01*
X1476Y1967D01*
X1474Y1967D01*
X1474Y1965D01*
X1470Y1965D01*
X1470Y1963D01*
X1466Y1963D01*
X1466Y1961D01*
X1462Y1961D01*
X1462Y1959D01*
X1452Y1959D01*
X1452Y1957D01*
X1544Y1957D01*
X1544Y1959D01*
X1536Y1959D01*
X1536Y1961D01*
X1530Y1961D01*
X1530Y1963D01*
X1526Y1963D01*
X1526Y1965D01*
X1524Y1965D01*
X1524Y1967D01*
X1520Y1967D01*
X1520Y1969D01*
X1518Y1969D01*
X1518Y1971D01*
X1516Y1971D01*
X1516Y1973D01*
X1514Y1973D01*
X1514Y1977D01*
X1512Y1977D01*
X1512Y1979D01*
X1510Y1979D01*
X1510Y1983D01*
X1508Y1983D01*
X1508Y1989D01*
X1488Y1989D01*
G37*
D02*
G36*
X1588Y1989D02*
X1588Y1983D01*
X1586Y1983D01*
X1586Y1979D01*
X1584Y1979D01*
X1584Y1975D01*
X1582Y1975D01*
X1582Y1973D01*
X1580Y1973D01*
X1580Y1971D01*
X1578Y1971D01*
X1578Y1969D01*
X1576Y1969D01*
X1576Y1967D01*
X1574Y1967D01*
X1574Y1965D01*
X1570Y1965D01*
X1570Y1963D01*
X1566Y1963D01*
X1566Y1961D01*
X1562Y1961D01*
X1562Y1959D01*
X1552Y1959D01*
X1552Y1957D01*
X1644Y1957D01*
X1644Y1959D01*
X1636Y1959D01*
X1636Y1961D01*
X1630Y1961D01*
X1630Y1963D01*
X1626Y1963D01*
X1626Y1965D01*
X1624Y1965D01*
X1624Y1967D01*
X1620Y1967D01*
X1620Y1969D01*
X1618Y1969D01*
X1618Y1971D01*
X1616Y1971D01*
X1616Y1973D01*
X1614Y1973D01*
X1614Y1977D01*
X1612Y1977D01*
X1612Y1979D01*
X1610Y1979D01*
X1610Y1983D01*
X1608Y1983D01*
X1608Y1989D01*
X1588Y1989D01*
G37*
D02*
G36*
X1848Y1989D02*
X1848Y1983D01*
X1846Y1983D01*
X1846Y1979D01*
X1844Y1979D01*
X1844Y1975D01*
X1842Y1975D01*
X1842Y1973D01*
X1840Y1973D01*
X1840Y1971D01*
X1838Y1971D01*
X1838Y1969D01*
X1836Y1969D01*
X1836Y1967D01*
X1834Y1967D01*
X1834Y1965D01*
X1830Y1965D01*
X1830Y1963D01*
X1826Y1963D01*
X1826Y1961D01*
X1822Y1961D01*
X1822Y1959D01*
X1812Y1959D01*
X1812Y1957D01*
X1904Y1957D01*
X1904Y1959D01*
X1896Y1959D01*
X1896Y1961D01*
X1890Y1961D01*
X1890Y1963D01*
X1886Y1963D01*
X1886Y1965D01*
X1884Y1965D01*
X1884Y1967D01*
X1880Y1967D01*
X1880Y1969D01*
X1878Y1969D01*
X1878Y1971D01*
X1876Y1971D01*
X1876Y1973D01*
X1874Y1973D01*
X1874Y1977D01*
X1872Y1977D01*
X1872Y1979D01*
X1870Y1979D01*
X1870Y1983D01*
X1868Y1983D01*
X1868Y1989D01*
X1848Y1989D01*
G37*
D02*
G36*
X1948Y1989D02*
X1948Y1983D01*
X1946Y1983D01*
X1946Y1979D01*
X1944Y1979D01*
X1944Y1975D01*
X1942Y1975D01*
X1942Y1973D01*
X1940Y1973D01*
X1940Y1971D01*
X1938Y1971D01*
X1938Y1969D01*
X1936Y1969D01*
X1936Y1967D01*
X1934Y1967D01*
X1934Y1965D01*
X1930Y1965D01*
X1930Y1963D01*
X1926Y1963D01*
X1926Y1961D01*
X1922Y1961D01*
X1922Y1959D01*
X1912Y1959D01*
X1912Y1957D01*
X2004Y1957D01*
X2004Y1959D01*
X1996Y1959D01*
X1996Y1961D01*
X1990Y1961D01*
X1990Y1963D01*
X1986Y1963D01*
X1986Y1965D01*
X1984Y1965D01*
X1984Y1967D01*
X1980Y1967D01*
X1980Y1969D01*
X1978Y1969D01*
X1978Y1971D01*
X1976Y1971D01*
X1976Y1973D01*
X1974Y1973D01*
X1974Y1977D01*
X1972Y1977D01*
X1972Y1979D01*
X1970Y1979D01*
X1970Y1983D01*
X1968Y1983D01*
X1968Y1989D01*
X1948Y1989D01*
G37*
D02*
G36*
X2048Y1989D02*
X2048Y1983D01*
X2046Y1983D01*
X2046Y1979D01*
X2044Y1979D01*
X2044Y1975D01*
X2042Y1975D01*
X2042Y1973D01*
X2040Y1973D01*
X2040Y1971D01*
X2038Y1971D01*
X2038Y1969D01*
X2036Y1969D01*
X2036Y1967D01*
X2034Y1967D01*
X2034Y1965D01*
X2030Y1965D01*
X2030Y1963D01*
X2026Y1963D01*
X2026Y1961D01*
X2022Y1961D01*
X2022Y1959D01*
X2012Y1959D01*
X2012Y1957D01*
X2104Y1957D01*
X2104Y1959D01*
X2096Y1959D01*
X2096Y1961D01*
X2090Y1961D01*
X2090Y1963D01*
X2086Y1963D01*
X2086Y1965D01*
X2084Y1965D01*
X2084Y1967D01*
X2080Y1967D01*
X2080Y1969D01*
X2078Y1969D01*
X2078Y1971D01*
X2076Y1971D01*
X2076Y1973D01*
X2074Y1973D01*
X2074Y1977D01*
X2072Y1977D01*
X2072Y1979D01*
X2070Y1979D01*
X2070Y1983D01*
X2068Y1983D01*
X2068Y1989D01*
X2048Y1989D01*
G37*
D02*
G36*
X2148Y1989D02*
X2148Y1983D01*
X2146Y1983D01*
X2146Y1979D01*
X2144Y1979D01*
X2144Y1975D01*
X2142Y1975D01*
X2142Y1973D01*
X2140Y1973D01*
X2140Y1971D01*
X2138Y1971D01*
X2138Y1969D01*
X2136Y1969D01*
X2136Y1967D01*
X2134Y1967D01*
X2134Y1965D01*
X2130Y1965D01*
X2130Y1963D01*
X2126Y1963D01*
X2126Y1961D01*
X2122Y1961D01*
X2122Y1959D01*
X2112Y1959D01*
X2112Y1957D01*
X2204Y1957D01*
X2204Y1959D01*
X2196Y1959D01*
X2196Y1961D01*
X2190Y1961D01*
X2190Y1963D01*
X2186Y1963D01*
X2186Y1965D01*
X2184Y1965D01*
X2184Y1967D01*
X2180Y1967D01*
X2180Y1969D01*
X2178Y1969D01*
X2178Y1971D01*
X2176Y1971D01*
X2176Y1973D01*
X2174Y1973D01*
X2174Y1977D01*
X2172Y1977D01*
X2172Y1979D01*
X2170Y1979D01*
X2170Y1983D01*
X2168Y1983D01*
X2168Y1989D01*
X2148Y1989D01*
G37*
D02*
G36*
X2248Y1989D02*
X2248Y1983D01*
X2246Y1983D01*
X2246Y1979D01*
X2244Y1979D01*
X2244Y1975D01*
X2242Y1975D01*
X2242Y1973D01*
X2240Y1973D01*
X2240Y1971D01*
X2238Y1971D01*
X2238Y1969D01*
X2236Y1969D01*
X2236Y1967D01*
X2234Y1967D01*
X2234Y1965D01*
X2230Y1965D01*
X2230Y1963D01*
X2226Y1963D01*
X2226Y1961D01*
X2222Y1961D01*
X2222Y1959D01*
X2212Y1959D01*
X2212Y1957D01*
X2304Y1957D01*
X2304Y1959D01*
X2296Y1959D01*
X2296Y1961D01*
X2290Y1961D01*
X2290Y1963D01*
X2286Y1963D01*
X2286Y1965D01*
X2284Y1965D01*
X2284Y1967D01*
X2280Y1967D01*
X2280Y1969D01*
X2278Y1969D01*
X2278Y1971D01*
X2276Y1971D01*
X2276Y1973D01*
X2274Y1973D01*
X2274Y1977D01*
X2272Y1977D01*
X2272Y1981D01*
X2270Y1981D01*
X2270Y1983D01*
X2268Y1983D01*
X2268Y1989D01*
X2248Y1989D01*
G37*
D02*
G36*
X2348Y1989D02*
X2348Y1983D01*
X2346Y1983D01*
X2346Y1979D01*
X2344Y1979D01*
X2344Y1975D01*
X2342Y1975D01*
X2342Y1973D01*
X2340Y1973D01*
X2340Y1971D01*
X2338Y1971D01*
X2338Y1969D01*
X2336Y1969D01*
X2336Y1967D01*
X2334Y1967D01*
X2334Y1965D01*
X2330Y1965D01*
X2330Y1963D01*
X2326Y1963D01*
X2326Y1961D01*
X2322Y1961D01*
X2322Y1959D01*
X2312Y1959D01*
X2312Y1957D01*
X2404Y1957D01*
X2404Y1959D01*
X2396Y1959D01*
X2396Y1961D01*
X2390Y1961D01*
X2390Y1963D01*
X2386Y1963D01*
X2386Y1965D01*
X2384Y1965D01*
X2384Y1967D01*
X2380Y1967D01*
X2380Y1969D01*
X2378Y1969D01*
X2378Y1971D01*
X2376Y1971D01*
X2376Y1973D01*
X2374Y1973D01*
X2374Y1977D01*
X2372Y1977D01*
X2372Y1979D01*
X2370Y1979D01*
X2370Y1983D01*
X2368Y1983D01*
X2368Y1989D01*
X2348Y1989D01*
G37*
D02*
G36*
X2448Y1989D02*
X2448Y1983D01*
X2446Y1983D01*
X2446Y1979D01*
X2444Y1979D01*
X2444Y1975D01*
X2442Y1975D01*
X2442Y1973D01*
X2440Y1973D01*
X2440Y1971D01*
X2438Y1971D01*
X2438Y1969D01*
X2436Y1969D01*
X2436Y1967D01*
X2434Y1967D01*
X2434Y1965D01*
X2430Y1965D01*
X2430Y1963D01*
X2426Y1963D01*
X2426Y1961D01*
X2422Y1961D01*
X2422Y1959D01*
X2412Y1959D01*
X2412Y1957D01*
X2504Y1957D01*
X2504Y1959D01*
X2496Y1959D01*
X2496Y1961D01*
X2490Y1961D01*
X2490Y1963D01*
X2486Y1963D01*
X2486Y1965D01*
X2484Y1965D01*
X2484Y1967D01*
X2480Y1967D01*
X2480Y1969D01*
X2478Y1969D01*
X2478Y1971D01*
X2476Y1971D01*
X2476Y1973D01*
X2474Y1973D01*
X2474Y1977D01*
X2472Y1977D01*
X2472Y1979D01*
X2470Y1979D01*
X2470Y1983D01*
X2468Y1983D01*
X2468Y1989D01*
X2448Y1989D01*
G37*
D02*
G36*
X2544Y1979D02*
X2544Y1975D01*
X2542Y1975D01*
X2542Y1973D01*
X2540Y1973D01*
X2540Y1971D01*
X2538Y1971D01*
X2538Y1969D01*
X2536Y1969D01*
X2536Y1967D01*
X2534Y1967D01*
X2534Y1965D01*
X2530Y1965D01*
X2530Y1963D01*
X2526Y1963D01*
X2526Y1961D01*
X2522Y1961D01*
X2522Y1959D01*
X2512Y1959D01*
X2512Y1957D01*
X2564Y1957D01*
X2564Y1979D01*
X2544Y1979D01*
G37*
D02*
G36*
X50Y1957D02*
X50Y1955D01*
X2564Y1955D01*
X2564Y1957D01*
X50Y1957D01*
G37*
D02*
G36*
X50Y1957D02*
X50Y1955D01*
X2564Y1955D01*
X2564Y1957D01*
X50Y1957D01*
G37*
D02*
G36*
X50Y1957D02*
X50Y1955D01*
X2564Y1955D01*
X2564Y1957D01*
X50Y1957D01*
G37*
D02*
G36*
X50Y1957D02*
X50Y1955D01*
X2564Y1955D01*
X2564Y1957D01*
X50Y1957D01*
G37*
D02*
G36*
X50Y1957D02*
X50Y1955D01*
X2564Y1955D01*
X2564Y1957D01*
X50Y1957D01*
G37*
D02*
G36*
X50Y1957D02*
X50Y1955D01*
X2564Y1955D01*
X2564Y1957D01*
X50Y1957D01*
G37*
D02*
G36*
X50Y1957D02*
X50Y1955D01*
X2564Y1955D01*
X2564Y1957D01*
X50Y1957D01*
G37*
D02*
G36*
X50Y1957D02*
X50Y1955D01*
X2564Y1955D01*
X2564Y1957D01*
X50Y1957D01*
G37*
D02*
G36*
X50Y1957D02*
X50Y1955D01*
X2564Y1955D01*
X2564Y1957D01*
X50Y1957D01*
G37*
D02*
G36*
X50Y1957D02*
X50Y1955D01*
X2564Y1955D01*
X2564Y1957D01*
X50Y1957D01*
G37*
D02*
G36*
X50Y1957D02*
X50Y1955D01*
X2564Y1955D01*
X2564Y1957D01*
X50Y1957D01*
G37*
D02*
G36*
X50Y1957D02*
X50Y1955D01*
X2564Y1955D01*
X2564Y1957D01*
X50Y1957D01*
G37*
D02*
G36*
X50Y1957D02*
X50Y1955D01*
X2564Y1955D01*
X2564Y1957D01*
X50Y1957D01*
G37*
D02*
G36*
X50Y1957D02*
X50Y1955D01*
X2564Y1955D01*
X2564Y1957D01*
X50Y1957D01*
G37*
D02*
G36*
X50Y1957D02*
X50Y1955D01*
X2564Y1955D01*
X2564Y1957D01*
X50Y1957D01*
G37*
D02*
G36*
X50Y1957D02*
X50Y1955D01*
X2564Y1955D01*
X2564Y1957D01*
X50Y1957D01*
G37*
D02*
G36*
X50Y1957D02*
X50Y1955D01*
X2564Y1955D01*
X2564Y1957D01*
X50Y1957D01*
G37*
D02*
G36*
X50Y1957D02*
X50Y1955D01*
X2564Y1955D01*
X2564Y1957D01*
X50Y1957D01*
G37*
D02*
G36*
X50Y1957D02*
X50Y1955D01*
X2564Y1955D01*
X2564Y1957D01*
X50Y1957D01*
G37*
D02*
G36*
X50Y1955D02*
X50Y1049D01*
X2418Y1049D01*
X2418Y1047D01*
X2426Y1047D01*
X2426Y1045D01*
X2430Y1045D01*
X2430Y1043D01*
X2434Y1043D01*
X2434Y1041D01*
X2436Y1041D01*
X2436Y1039D01*
X2440Y1039D01*
X2440Y1037D01*
X2442Y1037D01*
X2442Y1035D01*
X2444Y1035D01*
X2444Y1033D01*
X2446Y1033D01*
X2446Y1029D01*
X2448Y1029D01*
X2448Y1027D01*
X2450Y1027D01*
X2450Y1023D01*
X2452Y1023D01*
X2452Y1021D01*
X2454Y1021D01*
X2454Y1013D01*
X2456Y1013D01*
X2456Y1003D01*
X2458Y1003D01*
X2458Y997D01*
X2456Y997D01*
X2456Y987D01*
X2454Y987D01*
X2454Y981D01*
X2452Y981D01*
X2452Y977D01*
X2450Y977D01*
X2450Y973D01*
X2448Y973D01*
X2448Y971D01*
X2446Y971D01*
X2446Y969D01*
X2444Y969D01*
X2444Y965D01*
X2440Y965D01*
X2440Y963D01*
X2438Y963D01*
X2438Y961D01*
X2436Y961D01*
X2436Y939D01*
X2440Y939D01*
X2440Y937D01*
X2442Y937D01*
X2442Y935D01*
X2444Y935D01*
X2444Y933D01*
X2446Y933D01*
X2446Y929D01*
X2448Y929D01*
X2448Y927D01*
X2450Y927D01*
X2450Y923D01*
X2452Y923D01*
X2452Y921D01*
X2454Y921D01*
X2454Y913D01*
X2456Y913D01*
X2456Y903D01*
X2458Y903D01*
X2458Y897D01*
X2456Y897D01*
X2456Y887D01*
X2454Y887D01*
X2454Y881D01*
X2452Y881D01*
X2452Y877D01*
X2450Y877D01*
X2450Y873D01*
X2448Y873D01*
X2448Y871D01*
X2446Y871D01*
X2446Y869D01*
X2444Y869D01*
X2444Y865D01*
X2440Y865D01*
X2440Y863D01*
X2438Y863D01*
X2438Y861D01*
X2436Y861D01*
X2436Y859D01*
X2432Y859D01*
X2432Y857D01*
X2428Y857D01*
X2428Y855D01*
X2424Y855D01*
X2424Y853D01*
X2416Y853D01*
X2416Y851D01*
X2664Y851D01*
X2664Y1455D01*
X2662Y1455D01*
X2662Y1457D01*
X2660Y1457D01*
X2660Y1459D01*
X2658Y1459D01*
X2658Y1461D01*
X2656Y1461D01*
X2656Y1463D01*
X2654Y1463D01*
X2654Y1465D01*
X2652Y1465D01*
X2652Y1467D01*
X2650Y1467D01*
X2650Y1469D01*
X2648Y1469D01*
X2648Y1471D01*
X2646Y1471D01*
X2646Y1473D01*
X2644Y1473D01*
X2644Y1475D01*
X2642Y1475D01*
X2642Y1477D01*
X2640Y1477D01*
X2640Y1479D01*
X2638Y1479D01*
X2638Y1481D01*
X2636Y1481D01*
X2636Y1483D01*
X2634Y1483D01*
X2634Y1485D01*
X2632Y1485D01*
X2632Y1487D01*
X2630Y1487D01*
X2630Y1489D01*
X2628Y1489D01*
X2628Y1491D01*
X2626Y1491D01*
X2626Y1493D01*
X2624Y1493D01*
X2624Y1495D01*
X2622Y1495D01*
X2622Y1497D01*
X2620Y1497D01*
X2620Y1499D01*
X2618Y1499D01*
X2618Y1501D01*
X2616Y1501D01*
X2616Y1503D01*
X2614Y1503D01*
X2614Y1505D01*
X2612Y1505D01*
X2612Y1507D01*
X2610Y1507D01*
X2610Y1509D01*
X2608Y1509D01*
X2608Y1511D01*
X2606Y1511D01*
X2606Y1513D01*
X2604Y1513D01*
X2604Y1515D01*
X2602Y1515D01*
X2602Y1517D01*
X2600Y1517D01*
X2600Y1519D01*
X2598Y1519D01*
X2598Y1521D01*
X2596Y1521D01*
X2596Y1523D01*
X2594Y1523D01*
X2594Y1525D01*
X2592Y1525D01*
X2592Y1527D01*
X2590Y1527D01*
X2590Y1529D01*
X2588Y1529D01*
X2588Y1531D01*
X2586Y1531D01*
X2586Y1533D01*
X2584Y1533D01*
X2584Y1535D01*
X2582Y1535D01*
X2582Y1537D01*
X2580Y1537D01*
X2580Y1539D01*
X2578Y1539D01*
X2578Y1541D01*
X2576Y1541D01*
X2576Y1543D01*
X2574Y1543D01*
X2574Y1545D01*
X2572Y1545D01*
X2572Y1547D01*
X2570Y1547D01*
X2570Y1549D01*
X2568Y1549D01*
X2568Y1551D01*
X2566Y1551D01*
X2566Y1553D01*
X2564Y1553D01*
X2564Y1955D01*
X50Y1955D01*
G37*
D02*
G36*
X50Y1049D02*
X50Y1047D01*
X2020Y1047D01*
X2020Y1045D01*
X2026Y1045D01*
X2026Y1043D01*
X2030Y1043D01*
X2030Y1041D01*
X2034Y1041D01*
X2034Y1039D01*
X2036Y1039D01*
X2036Y1037D01*
X2040Y1037D01*
X2040Y1035D01*
X2042Y1035D01*
X2042Y1033D01*
X2044Y1033D01*
X2044Y1029D01*
X2046Y1029D01*
X2046Y1027D01*
X2368Y1027D01*
X2368Y1029D01*
X2370Y1029D01*
X2370Y1031D01*
X2372Y1031D01*
X2372Y1035D01*
X2374Y1035D01*
X2374Y1037D01*
X2378Y1037D01*
X2378Y1039D01*
X2380Y1039D01*
X2380Y1041D01*
X2382Y1041D01*
X2382Y1043D01*
X2386Y1043D01*
X2386Y1045D01*
X2390Y1045D01*
X2390Y1047D01*
X2398Y1047D01*
X2398Y1049D01*
X50Y1049D01*
G37*
D02*
G36*
X50Y1047D02*
X50Y953D01*
X1598Y953D01*
X1598Y955D01*
X1592Y955D01*
X1592Y957D01*
X1588Y957D01*
X1588Y959D01*
X1584Y959D01*
X1584Y961D01*
X1580Y961D01*
X1580Y963D01*
X1578Y963D01*
X1578Y965D01*
X1576Y965D01*
X1576Y967D01*
X1574Y967D01*
X1574Y969D01*
X1572Y969D01*
X1572Y971D01*
X1570Y971D01*
X1570Y973D01*
X1568Y973D01*
X1568Y977D01*
X1566Y977D01*
X1566Y981D01*
X1564Y981D01*
X1564Y987D01*
X1562Y987D01*
X1562Y995D01*
X1560Y995D01*
X1560Y1005D01*
X1562Y1005D01*
X1562Y1015D01*
X1564Y1015D01*
X1564Y1019D01*
X1566Y1019D01*
X1566Y1023D01*
X1568Y1023D01*
X1568Y1027D01*
X1570Y1027D01*
X1570Y1029D01*
X1572Y1029D01*
X1572Y1031D01*
X1574Y1031D01*
X1574Y1035D01*
X1578Y1035D01*
X1578Y1037D01*
X1580Y1037D01*
X1580Y1039D01*
X1582Y1039D01*
X1582Y1041D01*
X1586Y1041D01*
X1586Y1043D01*
X1590Y1043D01*
X1590Y1045D01*
X1596Y1045D01*
X1596Y1047D01*
X50Y1047D01*
G37*
D02*
G36*
X1620Y1047D02*
X1620Y1045D01*
X1626Y1045D01*
X1626Y1043D01*
X1630Y1043D01*
X1630Y1041D01*
X1634Y1041D01*
X1634Y1039D01*
X1636Y1039D01*
X1636Y1037D01*
X1640Y1037D01*
X1640Y1035D01*
X1642Y1035D01*
X1642Y1033D01*
X1644Y1033D01*
X1644Y1029D01*
X1646Y1029D01*
X1646Y1027D01*
X1648Y1027D01*
X1648Y1025D01*
X1650Y1025D01*
X1650Y1021D01*
X1652Y1021D01*
X1652Y1015D01*
X1654Y1015D01*
X1654Y1007D01*
X1656Y1007D01*
X1656Y993D01*
X1654Y993D01*
X1654Y985D01*
X1652Y985D01*
X1652Y981D01*
X1650Y981D01*
X1650Y977D01*
X1648Y977D01*
X1648Y973D01*
X1646Y973D01*
X1646Y971D01*
X1644Y971D01*
X1644Y969D01*
X1642Y969D01*
X1642Y967D01*
X1640Y967D01*
X1640Y965D01*
X1638Y965D01*
X1638Y963D01*
X1636Y963D01*
X1636Y961D01*
X1632Y961D01*
X1632Y959D01*
X1630Y959D01*
X1630Y957D01*
X1624Y957D01*
X1624Y955D01*
X1618Y955D01*
X1618Y953D01*
X1982Y953D01*
X1982Y961D01*
X1980Y961D01*
X1980Y963D01*
X1978Y963D01*
X1978Y965D01*
X1976Y965D01*
X1976Y967D01*
X1974Y967D01*
X1974Y969D01*
X1972Y969D01*
X1972Y971D01*
X1970Y971D01*
X1970Y973D01*
X1968Y973D01*
X1968Y977D01*
X1966Y977D01*
X1966Y981D01*
X1964Y981D01*
X1964Y987D01*
X1962Y987D01*
X1962Y995D01*
X1960Y995D01*
X1960Y1005D01*
X1962Y1005D01*
X1962Y1015D01*
X1964Y1015D01*
X1964Y1019D01*
X1966Y1019D01*
X1966Y1023D01*
X1968Y1023D01*
X1968Y1027D01*
X1970Y1027D01*
X1970Y1029D01*
X1972Y1029D01*
X1972Y1031D01*
X1974Y1031D01*
X1974Y1035D01*
X1978Y1035D01*
X1978Y1037D01*
X1980Y1037D01*
X1980Y1039D01*
X1982Y1039D01*
X1982Y1041D01*
X1986Y1041D01*
X1986Y1043D01*
X1990Y1043D01*
X1990Y1045D01*
X1996Y1045D01*
X1996Y1047D01*
X1620Y1047D01*
G37*
D02*
G36*
X2048Y975D02*
X2048Y973D01*
X2046Y973D01*
X2046Y971D01*
X2044Y971D01*
X2044Y969D01*
X2042Y969D01*
X2042Y967D01*
X2040Y967D01*
X2040Y965D01*
X2038Y965D01*
X2038Y963D01*
X2036Y963D01*
X2036Y961D01*
X2034Y961D01*
X2034Y851D01*
X2402Y851D01*
X2402Y853D01*
X2394Y853D01*
X2394Y855D01*
X2388Y855D01*
X2388Y857D01*
X2384Y857D01*
X2384Y859D01*
X2380Y859D01*
X2380Y861D01*
X2378Y861D01*
X2378Y863D01*
X2376Y863D01*
X2376Y865D01*
X2374Y865D01*
X2374Y867D01*
X2372Y867D01*
X2372Y869D01*
X2370Y869D01*
X2370Y871D01*
X2368Y871D01*
X2368Y875D01*
X2366Y875D01*
X2366Y877D01*
X2364Y877D01*
X2364Y881D01*
X2362Y881D01*
X2362Y889D01*
X2360Y889D01*
X2360Y913D01*
X2362Y913D01*
X2362Y919D01*
X2364Y919D01*
X2364Y923D01*
X2366Y923D01*
X2366Y927D01*
X2368Y927D01*
X2368Y929D01*
X2370Y929D01*
X2370Y931D01*
X2372Y931D01*
X2372Y935D01*
X2374Y935D01*
X2374Y937D01*
X2378Y937D01*
X2378Y939D01*
X2380Y939D01*
X2380Y961D01*
X2378Y961D01*
X2378Y963D01*
X2376Y963D01*
X2376Y965D01*
X2374Y965D01*
X2374Y967D01*
X2372Y967D01*
X2372Y969D01*
X2370Y969D01*
X2370Y971D01*
X2368Y971D01*
X2368Y975D01*
X2048Y975D01*
G37*
D02*
G36*
X50Y953D02*
X50Y951D01*
X1982Y951D01*
X1982Y953D01*
X50Y953D01*
G37*
D02*
G36*
X50Y953D02*
X50Y951D01*
X1982Y951D01*
X1982Y953D01*
X50Y953D01*
G37*
D02*
G36*
X50Y951D02*
X50Y143D01*
X1816Y143D01*
X1816Y141D01*
X1824Y141D01*
X1824Y139D01*
X1828Y139D01*
X1828Y137D01*
X1832Y137D01*
X1832Y135D01*
X1834Y135D01*
X1834Y133D01*
X1836Y133D01*
X1836Y131D01*
X1838Y131D01*
X1838Y129D01*
X1840Y129D01*
X1840Y127D01*
X1842Y127D01*
X1842Y125D01*
X1844Y125D01*
X1844Y121D01*
X1846Y121D01*
X1846Y117D01*
X1848Y117D01*
X1848Y111D01*
X1850Y111D01*
X1850Y89D01*
X1848Y89D01*
X1848Y83D01*
X1846Y83D01*
X1846Y79D01*
X1844Y79D01*
X1844Y75D01*
X1842Y75D01*
X1842Y73D01*
X1840Y73D01*
X1840Y71D01*
X1838Y71D01*
X1838Y69D01*
X1836Y69D01*
X1836Y67D01*
X1834Y67D01*
X1834Y47D01*
X1984Y47D01*
X1984Y67D01*
X1980Y67D01*
X1980Y69D01*
X1978Y69D01*
X1978Y71D01*
X1976Y71D01*
X1976Y73D01*
X1974Y73D01*
X1974Y77D01*
X1972Y77D01*
X1972Y79D01*
X1970Y79D01*
X1970Y83D01*
X1968Y83D01*
X1968Y91D01*
X1966Y91D01*
X1966Y111D01*
X1968Y111D01*
X1968Y117D01*
X1970Y117D01*
X1970Y121D01*
X1972Y121D01*
X1972Y125D01*
X1974Y125D01*
X1974Y127D01*
X1976Y127D01*
X1976Y129D01*
X1978Y129D01*
X1978Y131D01*
X1980Y131D01*
X1980Y133D01*
X1982Y133D01*
X1982Y951D01*
X50Y951D01*
G37*
D02*
G36*
X2034Y851D02*
X2034Y849D01*
X2664Y849D01*
X2664Y851D01*
X2034Y851D01*
G37*
D02*
G36*
X2034Y851D02*
X2034Y849D01*
X2664Y849D01*
X2664Y851D01*
X2034Y851D01*
G37*
D02*
G36*
X2034Y849D02*
X2034Y143D01*
X2516Y143D01*
X2516Y141D01*
X2524Y141D01*
X2524Y139D01*
X2528Y139D01*
X2528Y137D01*
X2532Y137D01*
X2532Y135D01*
X2534Y135D01*
X2534Y133D01*
X2536Y133D01*
X2536Y131D01*
X2538Y131D01*
X2538Y129D01*
X2540Y129D01*
X2540Y127D01*
X2542Y127D01*
X2542Y125D01*
X2544Y125D01*
X2544Y121D01*
X2564Y121D01*
X2564Y147D01*
X2566Y147D01*
X2566Y149D01*
X2568Y149D01*
X2568Y151D01*
X2570Y151D01*
X2570Y153D01*
X2572Y153D01*
X2572Y155D01*
X2574Y155D01*
X2574Y157D01*
X2576Y157D01*
X2576Y159D01*
X2578Y159D01*
X2578Y161D01*
X2580Y161D01*
X2580Y163D01*
X2582Y163D01*
X2582Y165D01*
X2584Y165D01*
X2584Y167D01*
X2586Y167D01*
X2586Y169D01*
X2588Y169D01*
X2588Y171D01*
X2590Y171D01*
X2590Y173D01*
X2592Y173D01*
X2592Y175D01*
X2594Y175D01*
X2594Y177D01*
X2596Y177D01*
X2596Y179D01*
X2598Y179D01*
X2598Y181D01*
X2600Y181D01*
X2600Y183D01*
X2602Y183D01*
X2602Y185D01*
X2604Y185D01*
X2604Y187D01*
X2606Y187D01*
X2606Y189D01*
X2608Y189D01*
X2608Y191D01*
X2610Y191D01*
X2610Y193D01*
X2612Y193D01*
X2612Y195D01*
X2614Y195D01*
X2614Y197D01*
X2616Y197D01*
X2616Y199D01*
X2618Y199D01*
X2618Y201D01*
X2620Y201D01*
X2620Y203D01*
X2622Y203D01*
X2622Y205D01*
X2624Y205D01*
X2624Y207D01*
X2626Y207D01*
X2626Y209D01*
X2628Y209D01*
X2628Y211D01*
X2630Y211D01*
X2630Y213D01*
X2632Y213D01*
X2632Y215D01*
X2634Y215D01*
X2634Y217D01*
X2636Y217D01*
X2636Y219D01*
X2638Y219D01*
X2638Y221D01*
X2640Y221D01*
X2640Y223D01*
X2642Y223D01*
X2642Y225D01*
X2644Y225D01*
X2644Y227D01*
X2646Y227D01*
X2646Y229D01*
X2648Y229D01*
X2648Y231D01*
X2650Y231D01*
X2650Y233D01*
X2652Y233D01*
X2652Y235D01*
X2654Y235D01*
X2654Y237D01*
X2656Y237D01*
X2656Y239D01*
X2658Y239D01*
X2658Y241D01*
X2660Y241D01*
X2660Y243D01*
X2662Y243D01*
X2662Y245D01*
X2664Y245D01*
X2664Y849D01*
X2034Y849D01*
G37*
D02*
G36*
X50Y143D02*
X50Y71D01*
X52Y71D01*
X52Y67D01*
X54Y67D01*
X54Y63D01*
X56Y63D01*
X56Y61D01*
X58Y61D01*
X58Y59D01*
X60Y59D01*
X60Y57D01*
X62Y57D01*
X62Y55D01*
X64Y55D01*
X64Y53D01*
X68Y53D01*
X68Y51D01*
X72Y51D01*
X72Y49D01*
X78Y49D01*
X78Y47D01*
X1084Y47D01*
X1084Y67D01*
X1080Y67D01*
X1080Y69D01*
X1078Y69D01*
X1078Y71D01*
X1076Y71D01*
X1076Y73D01*
X1074Y73D01*
X1074Y77D01*
X1072Y77D01*
X1072Y79D01*
X1070Y79D01*
X1070Y83D01*
X1068Y83D01*
X1068Y91D01*
X1066Y91D01*
X1066Y111D01*
X1068Y111D01*
X1068Y117D01*
X1070Y117D01*
X1070Y121D01*
X1072Y121D01*
X1072Y125D01*
X1074Y125D01*
X1074Y127D01*
X1076Y127D01*
X1076Y129D01*
X1078Y129D01*
X1078Y131D01*
X1080Y131D01*
X1080Y133D01*
X1082Y133D01*
X1082Y135D01*
X1086Y135D01*
X1086Y137D01*
X1088Y137D01*
X1088Y139D01*
X1092Y139D01*
X1092Y141D01*
X1100Y141D01*
X1100Y143D01*
X50Y143D01*
G37*
D02*
G36*
X1116Y143D02*
X1116Y141D01*
X1124Y141D01*
X1124Y139D01*
X1128Y139D01*
X1128Y137D01*
X1132Y137D01*
X1132Y135D01*
X1134Y135D01*
X1134Y133D01*
X1136Y133D01*
X1136Y131D01*
X1138Y131D01*
X1138Y129D01*
X1140Y129D01*
X1140Y127D01*
X1142Y127D01*
X1142Y125D01*
X1144Y125D01*
X1144Y121D01*
X1146Y121D01*
X1146Y117D01*
X1148Y117D01*
X1148Y111D01*
X1168Y111D01*
X1168Y117D01*
X1170Y117D01*
X1170Y121D01*
X1172Y121D01*
X1172Y125D01*
X1174Y125D01*
X1174Y127D01*
X1176Y127D01*
X1176Y129D01*
X1178Y129D01*
X1178Y131D01*
X1180Y131D01*
X1180Y133D01*
X1182Y133D01*
X1182Y135D01*
X1186Y135D01*
X1186Y137D01*
X1188Y137D01*
X1188Y139D01*
X1192Y139D01*
X1192Y141D01*
X1200Y141D01*
X1200Y143D01*
X1116Y143D01*
G37*
D02*
G36*
X1216Y143D02*
X1216Y141D01*
X1224Y141D01*
X1224Y139D01*
X1228Y139D01*
X1228Y137D01*
X1232Y137D01*
X1232Y135D01*
X1234Y135D01*
X1234Y133D01*
X1236Y133D01*
X1236Y131D01*
X1238Y131D01*
X1238Y129D01*
X1240Y129D01*
X1240Y127D01*
X1242Y127D01*
X1242Y125D01*
X1244Y125D01*
X1244Y121D01*
X1246Y121D01*
X1246Y117D01*
X1248Y117D01*
X1248Y111D01*
X1268Y111D01*
X1268Y117D01*
X1270Y117D01*
X1270Y121D01*
X1272Y121D01*
X1272Y125D01*
X1274Y125D01*
X1274Y127D01*
X1276Y127D01*
X1276Y129D01*
X1278Y129D01*
X1278Y131D01*
X1280Y131D01*
X1280Y133D01*
X1282Y133D01*
X1282Y135D01*
X1286Y135D01*
X1286Y137D01*
X1288Y137D01*
X1288Y139D01*
X1292Y139D01*
X1292Y141D01*
X1300Y141D01*
X1300Y143D01*
X1216Y143D01*
G37*
D02*
G36*
X1316Y143D02*
X1316Y141D01*
X1324Y141D01*
X1324Y139D01*
X1328Y139D01*
X1328Y137D01*
X1332Y137D01*
X1332Y135D01*
X1334Y135D01*
X1334Y133D01*
X1336Y133D01*
X1336Y131D01*
X1338Y131D01*
X1338Y129D01*
X1340Y129D01*
X1340Y127D01*
X1342Y127D01*
X1342Y125D01*
X1344Y125D01*
X1344Y121D01*
X1346Y121D01*
X1346Y117D01*
X1348Y117D01*
X1348Y111D01*
X1368Y111D01*
X1368Y117D01*
X1370Y117D01*
X1370Y121D01*
X1372Y121D01*
X1372Y125D01*
X1374Y125D01*
X1374Y127D01*
X1376Y127D01*
X1376Y129D01*
X1378Y129D01*
X1378Y131D01*
X1380Y131D01*
X1380Y133D01*
X1382Y133D01*
X1382Y135D01*
X1386Y135D01*
X1386Y137D01*
X1388Y137D01*
X1388Y139D01*
X1392Y139D01*
X1392Y141D01*
X1400Y141D01*
X1400Y143D01*
X1316Y143D01*
G37*
D02*
G36*
X1416Y143D02*
X1416Y141D01*
X1424Y141D01*
X1424Y139D01*
X1428Y139D01*
X1428Y137D01*
X1432Y137D01*
X1432Y135D01*
X1434Y135D01*
X1434Y133D01*
X1436Y133D01*
X1436Y131D01*
X1438Y131D01*
X1438Y129D01*
X1440Y129D01*
X1440Y127D01*
X1442Y127D01*
X1442Y125D01*
X1444Y125D01*
X1444Y121D01*
X1446Y121D01*
X1446Y117D01*
X1448Y117D01*
X1448Y111D01*
X1468Y111D01*
X1468Y117D01*
X1470Y117D01*
X1470Y121D01*
X1472Y121D01*
X1472Y125D01*
X1474Y125D01*
X1474Y127D01*
X1476Y127D01*
X1476Y129D01*
X1478Y129D01*
X1478Y131D01*
X1480Y131D01*
X1480Y133D01*
X1482Y133D01*
X1482Y135D01*
X1486Y135D01*
X1486Y137D01*
X1488Y137D01*
X1488Y139D01*
X1492Y139D01*
X1492Y141D01*
X1500Y141D01*
X1500Y143D01*
X1416Y143D01*
G37*
D02*
G36*
X1516Y143D02*
X1516Y141D01*
X1524Y141D01*
X1524Y139D01*
X1528Y139D01*
X1528Y137D01*
X1532Y137D01*
X1532Y135D01*
X1534Y135D01*
X1534Y133D01*
X1536Y133D01*
X1536Y131D01*
X1538Y131D01*
X1538Y129D01*
X1540Y129D01*
X1540Y127D01*
X1542Y127D01*
X1542Y125D01*
X1544Y125D01*
X1544Y121D01*
X1546Y121D01*
X1546Y117D01*
X1548Y117D01*
X1548Y111D01*
X1568Y111D01*
X1568Y117D01*
X1570Y117D01*
X1570Y121D01*
X1572Y121D01*
X1572Y125D01*
X1574Y125D01*
X1574Y127D01*
X1576Y127D01*
X1576Y129D01*
X1578Y129D01*
X1578Y131D01*
X1580Y131D01*
X1580Y133D01*
X1582Y133D01*
X1582Y135D01*
X1586Y135D01*
X1586Y137D01*
X1588Y137D01*
X1588Y139D01*
X1592Y139D01*
X1592Y141D01*
X1600Y141D01*
X1600Y143D01*
X1516Y143D01*
G37*
D02*
G36*
X1616Y143D02*
X1616Y141D01*
X1624Y141D01*
X1624Y139D01*
X1628Y139D01*
X1628Y137D01*
X1632Y137D01*
X1632Y135D01*
X1634Y135D01*
X1634Y133D01*
X1636Y133D01*
X1636Y131D01*
X1638Y131D01*
X1638Y129D01*
X1640Y129D01*
X1640Y127D01*
X1642Y127D01*
X1642Y125D01*
X1644Y125D01*
X1644Y121D01*
X1646Y121D01*
X1646Y117D01*
X1648Y117D01*
X1648Y111D01*
X1668Y111D01*
X1668Y117D01*
X1670Y117D01*
X1670Y121D01*
X1672Y121D01*
X1672Y125D01*
X1674Y125D01*
X1674Y127D01*
X1676Y127D01*
X1676Y129D01*
X1678Y129D01*
X1678Y131D01*
X1680Y131D01*
X1680Y133D01*
X1682Y133D01*
X1682Y135D01*
X1686Y135D01*
X1686Y137D01*
X1688Y137D01*
X1688Y139D01*
X1692Y139D01*
X1692Y141D01*
X1700Y141D01*
X1700Y143D01*
X1616Y143D01*
G37*
D02*
G36*
X1716Y143D02*
X1716Y141D01*
X1724Y141D01*
X1724Y139D01*
X1728Y139D01*
X1728Y137D01*
X1732Y137D01*
X1732Y135D01*
X1734Y135D01*
X1734Y133D01*
X1736Y133D01*
X1736Y131D01*
X1738Y131D01*
X1738Y129D01*
X1740Y129D01*
X1740Y127D01*
X1742Y127D01*
X1742Y125D01*
X1744Y125D01*
X1744Y121D01*
X1746Y121D01*
X1746Y117D01*
X1748Y117D01*
X1748Y111D01*
X1768Y111D01*
X1768Y117D01*
X1770Y117D01*
X1770Y121D01*
X1772Y121D01*
X1772Y125D01*
X1774Y125D01*
X1774Y127D01*
X1776Y127D01*
X1776Y129D01*
X1778Y129D01*
X1778Y131D01*
X1780Y131D01*
X1780Y133D01*
X1782Y133D01*
X1782Y135D01*
X1786Y135D01*
X1786Y137D01*
X1788Y137D01*
X1788Y139D01*
X1792Y139D01*
X1792Y141D01*
X1800Y141D01*
X1800Y143D01*
X1716Y143D01*
G37*
D02*
G36*
X2034Y143D02*
X2034Y133D01*
X2036Y133D01*
X2036Y131D01*
X2038Y131D01*
X2038Y129D01*
X2040Y129D01*
X2040Y127D01*
X2042Y127D01*
X2042Y125D01*
X2044Y125D01*
X2044Y121D01*
X2046Y121D01*
X2046Y117D01*
X2048Y117D01*
X2048Y111D01*
X2068Y111D01*
X2068Y117D01*
X2070Y117D01*
X2070Y121D01*
X2072Y121D01*
X2072Y125D01*
X2074Y125D01*
X2074Y127D01*
X2076Y127D01*
X2076Y129D01*
X2078Y129D01*
X2078Y131D01*
X2080Y131D01*
X2080Y133D01*
X2082Y133D01*
X2082Y135D01*
X2086Y135D01*
X2086Y137D01*
X2088Y137D01*
X2088Y139D01*
X2092Y139D01*
X2092Y141D01*
X2100Y141D01*
X2100Y143D01*
X2034Y143D01*
G37*
D02*
G36*
X2116Y143D02*
X2116Y141D01*
X2124Y141D01*
X2124Y139D01*
X2128Y139D01*
X2128Y137D01*
X2132Y137D01*
X2132Y135D01*
X2134Y135D01*
X2134Y133D01*
X2136Y133D01*
X2136Y131D01*
X2138Y131D01*
X2138Y129D01*
X2140Y129D01*
X2140Y127D01*
X2142Y127D01*
X2142Y125D01*
X2144Y125D01*
X2144Y121D01*
X2146Y121D01*
X2146Y117D01*
X2148Y117D01*
X2148Y111D01*
X2168Y111D01*
X2168Y117D01*
X2170Y117D01*
X2170Y121D01*
X2172Y121D01*
X2172Y125D01*
X2174Y125D01*
X2174Y127D01*
X2176Y127D01*
X2176Y129D01*
X2178Y129D01*
X2178Y131D01*
X2180Y131D01*
X2180Y133D01*
X2182Y133D01*
X2182Y135D01*
X2186Y135D01*
X2186Y137D01*
X2188Y137D01*
X2188Y139D01*
X2192Y139D01*
X2192Y141D01*
X2200Y141D01*
X2200Y143D01*
X2116Y143D01*
G37*
D02*
G36*
X2216Y143D02*
X2216Y141D01*
X2224Y141D01*
X2224Y139D01*
X2228Y139D01*
X2228Y137D01*
X2232Y137D01*
X2232Y135D01*
X2234Y135D01*
X2234Y133D01*
X2236Y133D01*
X2236Y131D01*
X2238Y131D01*
X2238Y129D01*
X2240Y129D01*
X2240Y127D01*
X2242Y127D01*
X2242Y125D01*
X2244Y125D01*
X2244Y121D01*
X2246Y121D01*
X2246Y117D01*
X2248Y117D01*
X2248Y111D01*
X2268Y111D01*
X2268Y117D01*
X2270Y117D01*
X2270Y121D01*
X2272Y121D01*
X2272Y125D01*
X2274Y125D01*
X2274Y127D01*
X2276Y127D01*
X2276Y129D01*
X2278Y129D01*
X2278Y131D01*
X2280Y131D01*
X2280Y133D01*
X2282Y133D01*
X2282Y135D01*
X2286Y135D01*
X2286Y137D01*
X2288Y137D01*
X2288Y139D01*
X2292Y139D01*
X2292Y141D01*
X2300Y141D01*
X2300Y143D01*
X2216Y143D01*
G37*
D02*
G36*
X2316Y143D02*
X2316Y141D01*
X2324Y141D01*
X2324Y139D01*
X2328Y139D01*
X2328Y137D01*
X2332Y137D01*
X2332Y135D01*
X2334Y135D01*
X2334Y133D01*
X2336Y133D01*
X2336Y131D01*
X2338Y131D01*
X2338Y129D01*
X2340Y129D01*
X2340Y127D01*
X2342Y127D01*
X2342Y125D01*
X2344Y125D01*
X2344Y121D01*
X2346Y121D01*
X2346Y117D01*
X2348Y117D01*
X2348Y111D01*
X2368Y111D01*
X2368Y117D01*
X2370Y117D01*
X2370Y121D01*
X2372Y121D01*
X2372Y125D01*
X2374Y125D01*
X2374Y127D01*
X2376Y127D01*
X2376Y129D01*
X2378Y129D01*
X2378Y131D01*
X2380Y131D01*
X2380Y133D01*
X2382Y133D01*
X2382Y135D01*
X2386Y135D01*
X2386Y137D01*
X2388Y137D01*
X2388Y139D01*
X2392Y139D01*
X2392Y141D01*
X2400Y141D01*
X2400Y143D01*
X2316Y143D01*
G37*
D02*
G36*
X2416Y143D02*
X2416Y141D01*
X2424Y141D01*
X2424Y139D01*
X2428Y139D01*
X2428Y137D01*
X2432Y137D01*
X2432Y135D01*
X2434Y135D01*
X2434Y133D01*
X2436Y133D01*
X2436Y131D01*
X2438Y131D01*
X2438Y129D01*
X2440Y129D01*
X2440Y127D01*
X2442Y127D01*
X2442Y125D01*
X2444Y125D01*
X2444Y121D01*
X2446Y121D01*
X2446Y117D01*
X2448Y117D01*
X2448Y111D01*
X2468Y111D01*
X2468Y117D01*
X2470Y117D01*
X2470Y121D01*
X2472Y121D01*
X2472Y125D01*
X2474Y125D01*
X2474Y127D01*
X2476Y127D01*
X2476Y129D01*
X2478Y129D01*
X2478Y131D01*
X2480Y131D01*
X2480Y133D01*
X2482Y133D01*
X2482Y135D01*
X2486Y135D01*
X2486Y137D01*
X2488Y137D01*
X2488Y139D01*
X2492Y139D01*
X2492Y141D01*
X2500Y141D01*
X2500Y143D01*
X2416Y143D01*
G37*
D02*
G36*
X1148Y89D02*
X1148Y83D01*
X1146Y83D01*
X1146Y79D01*
X1144Y79D01*
X1144Y75D01*
X1142Y75D01*
X1142Y73D01*
X1140Y73D01*
X1140Y71D01*
X1138Y71D01*
X1138Y69D01*
X1136Y69D01*
X1136Y67D01*
X1134Y67D01*
X1134Y47D01*
X1184Y47D01*
X1184Y67D01*
X1180Y67D01*
X1180Y69D01*
X1178Y69D01*
X1178Y71D01*
X1176Y71D01*
X1176Y73D01*
X1174Y73D01*
X1174Y77D01*
X1172Y77D01*
X1172Y79D01*
X1170Y79D01*
X1170Y83D01*
X1168Y83D01*
X1168Y89D01*
X1148Y89D01*
G37*
D02*
G36*
X1248Y89D02*
X1248Y83D01*
X1246Y83D01*
X1246Y79D01*
X1244Y79D01*
X1244Y75D01*
X1242Y75D01*
X1242Y73D01*
X1240Y73D01*
X1240Y71D01*
X1238Y71D01*
X1238Y69D01*
X1236Y69D01*
X1236Y67D01*
X1234Y67D01*
X1234Y47D01*
X1284Y47D01*
X1284Y67D01*
X1280Y67D01*
X1280Y69D01*
X1278Y69D01*
X1278Y71D01*
X1276Y71D01*
X1276Y73D01*
X1274Y73D01*
X1274Y77D01*
X1272Y77D01*
X1272Y79D01*
X1270Y79D01*
X1270Y83D01*
X1268Y83D01*
X1268Y89D01*
X1248Y89D01*
G37*
D02*
G36*
X1348Y89D02*
X1348Y83D01*
X1346Y83D01*
X1346Y79D01*
X1344Y79D01*
X1344Y75D01*
X1342Y75D01*
X1342Y73D01*
X1340Y73D01*
X1340Y71D01*
X1338Y71D01*
X1338Y69D01*
X1336Y69D01*
X1336Y67D01*
X1334Y67D01*
X1334Y47D01*
X1384Y47D01*
X1384Y67D01*
X1380Y67D01*
X1380Y69D01*
X1378Y69D01*
X1378Y71D01*
X1376Y71D01*
X1376Y73D01*
X1374Y73D01*
X1374Y77D01*
X1372Y77D01*
X1372Y79D01*
X1370Y79D01*
X1370Y83D01*
X1368Y83D01*
X1368Y89D01*
X1348Y89D01*
G37*
D02*
G36*
X1448Y89D02*
X1448Y83D01*
X1446Y83D01*
X1446Y79D01*
X1444Y79D01*
X1444Y75D01*
X1442Y75D01*
X1442Y73D01*
X1440Y73D01*
X1440Y71D01*
X1438Y71D01*
X1438Y69D01*
X1436Y69D01*
X1436Y67D01*
X1434Y67D01*
X1434Y47D01*
X1484Y47D01*
X1484Y67D01*
X1480Y67D01*
X1480Y69D01*
X1478Y69D01*
X1478Y71D01*
X1476Y71D01*
X1476Y73D01*
X1474Y73D01*
X1474Y77D01*
X1472Y77D01*
X1472Y79D01*
X1470Y79D01*
X1470Y83D01*
X1468Y83D01*
X1468Y89D01*
X1448Y89D01*
G37*
D02*
G36*
X1548Y89D02*
X1548Y83D01*
X1546Y83D01*
X1546Y79D01*
X1544Y79D01*
X1544Y75D01*
X1542Y75D01*
X1542Y73D01*
X1540Y73D01*
X1540Y71D01*
X1538Y71D01*
X1538Y69D01*
X1536Y69D01*
X1536Y67D01*
X1534Y67D01*
X1534Y47D01*
X1584Y47D01*
X1584Y67D01*
X1580Y67D01*
X1580Y69D01*
X1578Y69D01*
X1578Y71D01*
X1576Y71D01*
X1576Y73D01*
X1574Y73D01*
X1574Y77D01*
X1572Y77D01*
X1572Y79D01*
X1570Y79D01*
X1570Y83D01*
X1568Y83D01*
X1568Y89D01*
X1548Y89D01*
G37*
D02*
G36*
X1648Y89D02*
X1648Y83D01*
X1646Y83D01*
X1646Y79D01*
X1644Y79D01*
X1644Y75D01*
X1642Y75D01*
X1642Y73D01*
X1640Y73D01*
X1640Y71D01*
X1638Y71D01*
X1638Y69D01*
X1636Y69D01*
X1636Y67D01*
X1634Y67D01*
X1634Y47D01*
X1684Y47D01*
X1684Y67D01*
X1680Y67D01*
X1680Y69D01*
X1678Y69D01*
X1678Y71D01*
X1676Y71D01*
X1676Y73D01*
X1674Y73D01*
X1674Y77D01*
X1672Y77D01*
X1672Y79D01*
X1670Y79D01*
X1670Y83D01*
X1668Y83D01*
X1668Y89D01*
X1648Y89D01*
G37*
D02*
G36*
X1748Y89D02*
X1748Y83D01*
X1746Y83D01*
X1746Y79D01*
X1744Y79D01*
X1744Y75D01*
X1742Y75D01*
X1742Y73D01*
X1740Y73D01*
X1740Y71D01*
X1738Y71D01*
X1738Y69D01*
X1736Y69D01*
X1736Y67D01*
X1734Y67D01*
X1734Y47D01*
X1784Y47D01*
X1784Y67D01*
X1780Y67D01*
X1780Y69D01*
X1778Y69D01*
X1778Y71D01*
X1776Y71D01*
X1776Y73D01*
X1774Y73D01*
X1774Y77D01*
X1772Y77D01*
X1772Y79D01*
X1770Y79D01*
X1770Y83D01*
X1768Y83D01*
X1768Y89D01*
X1748Y89D01*
G37*
D02*
G36*
X2048Y89D02*
X2048Y83D01*
X2046Y83D01*
X2046Y79D01*
X2044Y79D01*
X2044Y75D01*
X2042Y75D01*
X2042Y73D01*
X2040Y73D01*
X2040Y71D01*
X2038Y71D01*
X2038Y69D01*
X2036Y69D01*
X2036Y67D01*
X2034Y67D01*
X2034Y47D01*
X2084Y47D01*
X2084Y67D01*
X2080Y67D01*
X2080Y69D01*
X2078Y69D01*
X2078Y71D01*
X2076Y71D01*
X2076Y73D01*
X2074Y73D01*
X2074Y77D01*
X2072Y77D01*
X2072Y79D01*
X2070Y79D01*
X2070Y83D01*
X2068Y83D01*
X2068Y89D01*
X2048Y89D01*
G37*
D02*
G36*
X2148Y89D02*
X2148Y83D01*
X2146Y83D01*
X2146Y79D01*
X2144Y79D01*
X2144Y75D01*
X2142Y75D01*
X2142Y73D01*
X2140Y73D01*
X2140Y71D01*
X2138Y71D01*
X2138Y69D01*
X2136Y69D01*
X2136Y67D01*
X2134Y67D01*
X2134Y47D01*
X2184Y47D01*
X2184Y67D01*
X2180Y67D01*
X2180Y69D01*
X2178Y69D01*
X2178Y71D01*
X2176Y71D01*
X2176Y73D01*
X2174Y73D01*
X2174Y77D01*
X2172Y77D01*
X2172Y79D01*
X2170Y79D01*
X2170Y83D01*
X2168Y83D01*
X2168Y89D01*
X2148Y89D01*
G37*
D02*
G36*
X2248Y89D02*
X2248Y83D01*
X2246Y83D01*
X2246Y79D01*
X2244Y79D01*
X2244Y75D01*
X2242Y75D01*
X2242Y73D01*
X2240Y73D01*
X2240Y71D01*
X2238Y71D01*
X2238Y69D01*
X2236Y69D01*
X2236Y67D01*
X2234Y67D01*
X2234Y47D01*
X2284Y47D01*
X2284Y67D01*
X2280Y67D01*
X2280Y69D01*
X2278Y69D01*
X2278Y71D01*
X2276Y71D01*
X2276Y73D01*
X2274Y73D01*
X2274Y77D01*
X2272Y77D01*
X2272Y81D01*
X2270Y81D01*
X2270Y83D01*
X2268Y83D01*
X2268Y89D01*
X2248Y89D01*
G37*
D02*
G36*
X2348Y89D02*
X2348Y83D01*
X2346Y83D01*
X2346Y79D01*
X2344Y79D01*
X2344Y75D01*
X2342Y75D01*
X2342Y73D01*
X2340Y73D01*
X2340Y71D01*
X2338Y71D01*
X2338Y69D01*
X2336Y69D01*
X2336Y67D01*
X2334Y67D01*
X2334Y47D01*
X2384Y47D01*
X2384Y67D01*
X2380Y67D01*
X2380Y69D01*
X2378Y69D01*
X2378Y71D01*
X2376Y71D01*
X2376Y73D01*
X2374Y73D01*
X2374Y77D01*
X2372Y77D01*
X2372Y79D01*
X2370Y79D01*
X2370Y83D01*
X2368Y83D01*
X2368Y89D01*
X2348Y89D01*
G37*
D02*
G36*
X2448Y89D02*
X2448Y83D01*
X2446Y83D01*
X2446Y79D01*
X2444Y79D01*
X2444Y75D01*
X2442Y75D01*
X2442Y73D01*
X2440Y73D01*
X2440Y71D01*
X2438Y71D01*
X2438Y69D01*
X2436Y69D01*
X2436Y67D01*
X2434Y67D01*
X2434Y47D01*
X2484Y47D01*
X2484Y67D01*
X2480Y67D01*
X2480Y69D01*
X2478Y69D01*
X2478Y71D01*
X2476Y71D01*
X2476Y73D01*
X2474Y73D01*
X2474Y77D01*
X2472Y77D01*
X2472Y79D01*
X2470Y79D01*
X2470Y83D01*
X2468Y83D01*
X2468Y89D01*
X2448Y89D01*
G37*
D02*
G36*
X2385Y884D02*
X2429Y884D01*
X2429Y851D01*
X2385Y851D01*
X2385Y884D01*
G37*
D02*
G36*
X1688Y147D02*
X1726Y147D01*
X1726Y124D01*
X1688Y124D01*
X1688Y147D01*
G37*
D02*
G36*
X1688Y82D02*
X1726Y82D01*
X1726Y57D01*
X1688Y57D01*
X1688Y82D01*
G37*
D02*
G36*
X1028Y2047D02*
X1066Y2047D01*
X1066Y2023D01*
X1028Y2023D01*
X1028Y2047D01*
G37*
D02*
G36*
X1028Y1981D02*
X1066Y1981D01*
X1066Y1957D01*
X1028Y1957D01*
X1028Y1981D01*
G37*
D02*
G36*
X1588Y147D02*
X1626Y147D01*
X1626Y124D01*
X1588Y124D01*
X1588Y147D01*
G37*
D02*
G36*
X1588Y82D02*
X1626Y82D01*
X1626Y57D01*
X1588Y57D01*
X1588Y82D01*
G37*
D02*
G36*
X1586Y1051D02*
X1629Y1051D01*
X1629Y1020D01*
X1586Y1020D01*
X1586Y1051D01*
G37*
D02*
G36*
X1586Y986D02*
X1629Y986D01*
X1629Y953D01*
X1586Y953D01*
X1586Y986D01*
G37*
D02*
G36*
X1556Y1023D02*
X1589Y1023D01*
X1589Y980D01*
X1556Y980D01*
X1556Y1023D01*
G37*
D02*
G36*
X1623Y1023D02*
X1656Y1023D01*
X1656Y980D01*
X1623Y980D01*
X1623Y1023D01*
G37*
D02*
G04 End of Copper1*
M02*